test.vcd
$date
  Tue Dec 10 21:54:22 2019
$end
$version
  GHDL v0
$end
$timescale
  1 fs
$end
$scope module standard $end
$upscope $end
$scope module std_logic_1164 $end
$upscope $end
$scope module numeric_std $end
$upscope $end
$scope module test_bench $end
$var reg 1 ! clock $end
$var reg 6 " instruction[5:0] $end
$var reg 1 # regdst $end
$var reg 2 $ jump[1:0] $end
$var reg 1 % branch $end
$var reg 1 & memread $end
$var reg 1 ' memtoreg $end
$var reg 3 ( aluop[2:0] $end
$var reg 1 ) memwrite $end
$var reg 1 * alusrc $end
$var reg 1 + regwrite $end
$var reg 1 , clock_real $end
$var reg 1 - resetador_de_pc $end
$scope module mip0 $end
$var reg 1 . clk $end
$var reg 6 / instruction[5:0] $end
$var reg 1 0 regdst $end
$var reg 2 1 jump[1:0] $end
$var reg 1 2 branch $end
$var reg 1 3 memread $end
$var reg 1 4 memtoreg $end
$var reg 3 5 aluop[2:0] $end
$var reg 1 6 memwrite $end
$var reg 1 7 alusrc $end
$var reg 1 8 regwrite $end
$var reg 1 9 reset_pc $end
$var reg 32 : mux3_to_pc[31:0] $end
$var reg 32 ; pc_to_instruction_adder[31:0] $end
$var reg 32 < somador_out[31:0] $end
$var reg 32 = instruction_memory_out[31:0] $end
$var reg 5 > mux0_5_out[4:0] $end
$var reg 32 ? mux0_32_out[31:0] $end
$var reg 32 @ banco_reg_output1_out[31:0] $end
$var reg 32 A banco_reg_output2_out[31:0] $end
$var reg 32 B data_out_reg[31:0] $end
$var reg 32 C extented_instruction[31:0] $end
$var reg 4 D alu_op_out[3:0] $end
$var reg 1 E alu_zero_out $end
$var reg 1 F alu_negative_out $end
$var reg 32 G alu_result_out[31:0] $end
$var reg 32 H data_memory_out[31:0] $end
$var reg 1 I control_mem_to_reg $end
$var reg 2 J control_jmp[1:0] $end
$var reg 1 K control_branch $end
$var reg 1 L control_regdest $end
$var reg 1 M control_memread $end
$var reg 3 N control_alu_op[2:0] $end
$var reg 1 O control_memwrite $end
$var reg 1 P control_alusrc $end
$var reg 1 Q control_reg_write $end
$var reg 1 R branch_and_zero $end
$var reg 32 S saida_mux2[31:0] $end
$var reg 32 T somador2_out[31:0] $end
$var reg 32 U jump_adress_before_add[31:0] $end
$var reg 32 V jump_adress_after_add[31:0] $end
$var reg 32 W valor4[31:0] $end
$var reg 32 X shift_left0[31:0] $end
$var reg 32 Y jal[31:0] $end
$var reg 32 Z jr[31:0] $end
$var reg 1 [ alu_jr_to_jr $end
$var reg 2 \ mux_control_to_mux[1:0] $end
$scope module pc0 $end
$var reg 1 ] clk $end
$var reg 32 ^ entrada[31:0] $end
$var reg 1 _ reset $end
$var reg 32 ` saida[31:0] $end
$upscope $end
$scope module somador4 $end
$var reg 32 a number1[31:0] $end
$var reg 32 b number2[31:0] $end
$var reg 32 c saida[31:0] $end
$var reg 32 d temp[31:0] $end
$upscope $end
$scope module instructions $end
$var reg 32 e data_out[31:0] $end
$var reg 7 f address[6:0] $end
$comment data_mem is not handled $end
$upscope $end
$scope module mux_banco_registradores $end
$var reg 5 g entrada0[4:0] $end
$var reg 5 h entrada1[4:0] $end
$var reg 1 i seletor $end
$var reg 5 j saida[4:0] $end
$upscope $end
$scope module bank $end
$var reg 1 k clock $end
$var reg 5 l address1[4:0] $end
$var reg 5 m address2[4:0] $end
$var reg 5 n write_address[4:0] $end
$var reg 32 o output1[31:0] $end
$var reg 32 p output2[31:0] $end
$var reg 32 q write_data[31:0] $end
$var reg 1 r write_enable $end
$comment data_mem is not handled $end
$upscope $end
$scope module mux_saida_banco_registradores $end
$var reg 32 s entrada0[31:0] $end
$var reg 32 t entrada1[31:0] $end
$var reg 1 u seletor $end
$var reg 32 v saida[31:0] $end
$upscope $end
$scope module alu0 $end
$var reg 32 w a[31:0] $end
$var reg 32 x b[31:0] $end
$var reg 4 y op[3:0] $end
$var reg 1 z zero $end
$var reg 1 { negative $end
$var reg 32 | result[31:0] $end
$upscope $end
$scope module alu_control $end
$var reg 6 } instruction_in[5:0] $end
$var reg 3 !" alu_op[2:0] $end
$var reg 4 "" alu_op_out[3:0] $end
$var reg 1 #" jr $end
$upscope $end
$scope module memoria_de_dados $end
$var reg 1 $" write_enable $end
$var reg 32 %" data_out[31:0] $end
$var reg 32 &" data_in[31:0] $end
$var reg 7 '" address[6:0] $end
$comment data_mem is not handled $end
$upscope $end
$scope module mux_saida_memoria_de_dados $end
$var reg 32 (" entrada0[31:0] $end
$var reg 32 )" entrada1[31:0] $end
$var reg 1 *" seletor $end
$var reg 32 +" saida[31:0] $end
$upscope $end
$scope module controle0 $end
$var reg 1 ," clk $end
$var reg 6 -" instruction[5:0] $end
$var reg 1 ." regdst $end
$var reg 2 /" jump[1:0] $end
$var reg 1 0" branch $end
$var reg 1 1" memread $end
$var reg 1 2" memtoreg $end
$var reg 3 3" aluop[2:0] $end
$var reg 1 4" memwrite $end
$var reg 1 5" alusrc $end
$var reg 1 6" regwrite $end
$upscope $end
$scope module mux_seleciona_pc $end
$var reg 32 7" entrada0[31:0] $end
$var reg 32 8" entrada1[31:0] $end
$var reg 1 9" seletor $end
$var reg 32 :" saida[31:0] $end
$upscope $end
$scope module jump_control0 $end
$var reg 1 ;" jr $end
$var reg 2 <" jump_control[1:0] $end
$var reg 2 =" mux_control[1:0] $end
$upscope $end
$scope module mux3_32_2bits $end
$var reg 32 >" entrada0[31:0] $end
$var reg 32 ?" entrada1[31:0] $end
$var reg 32 @" entrada2[31:0] $end
$var reg 32 A" entrada3[31:0] $end
$var reg 2 B" seletor[1:0] $end
$var reg 32 C" saida[31:0] $end
$upscope $end
$scope module somador4_2 $end
$var reg 32 D" number1[31:0] $end
$var reg 32 E" number2[31:0] $end
$var reg 32 F" saida[31:0] $end
$var reg 32 G" temp[31:0] $end
$upscope $end
$scope module somador4_3 $end
$var reg 32 H" number1[31:0] $end
$var reg 32 I" number2[31:0] $end
$var reg 32 J" saida[31:0] $end
$var reg 32 K" temp[31:0] $end
$upscope $end
$upscope $end
$upscope $end
$enddefinitions $end
#0
U!
b001000 "
U#
bUU $
U%
U&
U'
bUUU (
U)
U*
U+
U,
1-
U.
b001000 /
U0
bUU 1
U2
U3
U4
bUUU 5
U6
U7
U8
19
bUUUUUUUUUUUUUUUUUUUUUUUUUUUUUUUU :
bUUUUUUUUUUUUUUUUUUUUUUUUUUUUUUUU ;
bXXXXXXXXXXXXXXXXXXXXXXXXXXXXXXXX <
b00100010001100000000000000001010 =
bUUUUU >
bUUUUUUUUUUUUUUUUUUUUUUUUUUUUUUUU ?
b00000000000000000000000000000000 @
b00000000000000000000000000000000 A
bUUUUUUUUUUUUUUUUUUUUUUUUUUUUUUUU B
b00000000000000000000000000001010 C
bUUUU D
1E
1F
b00000000000000000000000000000000 G
b00000000000000000000000000000000 H
UI
bUU J
UK
UL
UM
bUUU N
UO
UP
UQ
UR
bXXXXXXXXXXXXXXXXXXXXXXXXXXXXXXXX S
bXXXXXXXXXXXXXXXXXXXXXXXXXXXXXXXX T
bUUU01000110000000000000000101000 U
bXXXXXXXXXXXXXXXXXXXXXXXXXXXXXXXX V
b00000000000000000000000000000100 W
b00000000000000000000000000101000 X
b00011000000000000000010100000000 Y
b00000000000000000000000000000000 Z
0[
bUU \
U]
bUUUUUUUUUUUUUUUUUUUUUUUUUUUUUUUU ^
1_
bUUUUUUUUUUUUUUUUUUUUUUUUUUUUUUUU `
bUUUUUUUUUUUUUUUUUUUUUUUUUUUUUUUU a
b00000000000000000000000000000100 b
bXXXXXXXXXXXXXXXXXXXXXXXXXXXXXXXX c
bXXXXXXXXXXXXXXXXXXXXXXXXXXXXXXXX d
b00100010001100000000000000001010 e
bUUUUUUU f
b10000 g
b00000 h
Ui
bUUUUU j
Uk
b10001 l
b10000 m
bUUUUU n
b00000000000000000000000000000000 o
b00000000000000000000000000000000 p
bUUUUUUUUUUUUUUUUUUUUUUUUUUUUUUUU q
Ur
b00000000000000000000000000000000 s
b00000000000000000000000000001010 t
Uu
bUUUUUUUUUUUUUUUUUUUUUUUUUUUUUUUU v
b00000000000000000000000000000000 w
bUUUUUUUUUUUUUUUUUUUUUUUUUUUUUUUU x
bUUUU y
1z
1{
b00000000000000000000000000000000 |
b001010 }
bUUU !"
bUUUU ""
0#"
U$"
b00000000000000000000000000000000 %"
b00000000000000000000000000000000 &"
b0000000 '"
b00000000000000000000000000000000 ("
b00000000000000000000000000000000 )"
U*"
bUUUUUUUUUUUUUUUUUUUUUUUUUUUUUUUU +"
U,"
b001000 -"
U."
bUU /"
U0"
U1"
U2"
bUUU 3"
U4"
U5"
U6"
bXXXXXXXXXXXXXXXXXXXXXXXXXXXXXXXX 7"
bXXXXXXXXXXXXXXXXXXXXXXXXXXXXXXXX 8"
U9"
bXXXXXXXXXXXXXXXXXXXXXXXXXXXXXXXX :"
0;"
bUU <"
bUU ="
bXXXXXXXXXXXXXXXXXXXXXXXXXXXXXXXX >"
bXXXXXXXXXXXXXXXXXXXXXXXXXXXXXXXX ?"
b00000000000000000000000000000000 @"
b00011000000000000000010100000000 A"
bUU B"
bUUUUUUUUUUUUUUUUUUUUUUUUUUUUUUUU C"
bXXXXXXXXXXXXXXXXXXXXXXXXXXXXXXXX D"
b00000000000000000000000000101000 E"
bXXXXXXXXXXXXXXXXXXXXXXXXXXXXXXXX F"
bXXXXXXXXXXXXXXXXXXXXXXXXXXXXXXXX G"
bUUU01000110000000000000000101000 H"
b00000000000000000000000000000100 I"
bXXXXXXXXXXXXXXXXXXXXXXXXXXXXXXXX J"
bXXXXXXXXXXXXXXXXXXXXXXXXXXXXXXXX K"
#1000000
0!
0,
0.
b00000000000000000000000000000000 ;
b00000000000000000000000000000100 <
b00000000000000000000000000101100 T
b00001000110000000000000000101000 U
b00001000110000000000000000101100 V
0]
b00000000000000000000000000000000 `
b00000000000000000000000000000000 a
b00000000000000000000000000000100 c
b00000000000000000000000000000100 d
b0000000 f
0k
0,"
b00000000000000000000000000000100 7"
b00000000000000000000000000101100 8"
b00001000110000000000000000101100 ?"
b00000000000000000000000000000100 D"
b00000000000000000000000000101100 F"
b00000000000000000000000000101100 G"
b00001000110000000000000000101000 H"
b00001000110000000000000000101100 J"
b00001000110000000000000000101100 K"
#2000000
1!
0#
b00 $
0%
0&
0'
b110 (
0)
1*
1+
1,
1.
00
b00 1
02
03
04
b110 5
06
17
18
b00000000000000000000000000000100 :
b10000 >
b00000000000000000000000000001010 ?
b00000000000000000000000000001010 B
b0010 D
0E
b00000000000000000000000000001010 G
0I
b00 J
0K
0L
0M
b110 N
0O
1P
1Q
0R
b00000000000000000000000000000100 S
b00 \
1]
b00000000000000000000000000000100 ^
0i
b10000 j
1k
b10000 n
b00000000000000000000000000001010 q
1r
1u
b00000000000000000000000000001010 v
b00000000000000000000000000001010 x
b0010 y
0z
b00000000000000000000000000001010 |
b110 !"
b0010 ""
0$"
b0000010 '"
b00000000000000000000000000001010 ("
0*"
b00000000000000000000000000001010 +"
1,"
0."
b00 /"
00"
01"
02"
b110 3"
04"
15"
16"
09"
b00000000000000000000000000000100 :"
b00 <"
b00 ="
b00000000000000000000000000000100 >"
b00 B"
b00000000000000000000000000000100 C"
#3000000
0-
09
0_
#13000000
0!
b000000 "
0,
0.
b000000 /
b00000000000000000000000000001000 :
b00000000000000000000000000000100 ;
b00000000000000000000000000001000 <
b00000010000100001000000000100000 =
b00000000000000001000000000100000 ?
b00000000000000001000000000100000 B
b00000000000000001000000000100000 C
b00000000000000001000000000100000 G
b00000000000000000000000000001000 S
b00000000000000100000000010001000 T
b00001000010000100000000010000000 U
b00001000010000100000000010000100 V
b00000000000000100000000010000000 X
b00001000010000000001000000000000 Y
0]
b00000000000000000000000000001000 ^
b00000000000000000000000000000100 `
b00000000000000000000000000000100 a
b00000000000000000000000000001000 c
b00000000000000000000000000001000 d
b00000010000100001000000000100000 e
b0000001 f
b10000 h
0k
b10000 l
b00000000000000001000000000100000 q
b00000000000000001000000000100000 t
b00000000000000001000000000100000 v
b00000000000000001000000000100000 x
b00000000000000001000000000100000 |
b100000 }
b0001000 '"
b00000000000000001000000000100000 ("
b00000000000000001000000000100000 +"
0,"
b000000 -"
b00000000000000000000000000001000 7"
b00000000000000100000000010001000 8"
b00000000000000000000000000001000 :"
b00000000000000000000000000001000 >"
b00001000010000100000000010000100 ?"
b00001000010000000001000000000000 A"
b00000000000000000000000000001000 C"
b00000000000000000000000000001000 D"
b00000000000000100000000010000000 E"
b00000000000000100000000010001000 F"
b00000000000000100000000010001000 G"
b00001000010000100000000010000000 H"
b00001000010000100000000010000100 J"
b00001000010000100000000010000100 K"
#23000000
1!
1#
b000 (
0*
1,
1.
10
b000 5
07
b00000000000000000000000000001010 ?
b00000000000000000000000000001010 @
b00000000000000000000000000001010 A
b00000000000000000000000000010100 B
b00000000000000000000000000010100 G
1L
b000 N
0P
b00000000000000000000000000001010 Z
1]
1i
1k
b00000000000000000000000000001010 o
b00000000000000000000000000001010 p
b00000000000000000000000000010100 q
b00000000000000000000000000001010 s
0u
b00000000000000000000000000001010 v
b00000000000000000000000000001010 w
b00000000000000000000000000001010 x
b00000000000000000000000000010100 |
b000 !"
b00000000000000000000000000001010 &"
b0000101 '"
b00000000000000000000000000010100 ("
b00000000000000000000000000010100 +"
1,"
1."
b000 3"
05"
b00000000000000000000000000001010 @"
#33000000
0!
b001000 "
0,
0.
b001000 /
b00000000000000000000000000001100 :
b00000000000000000000000000001000 ;
b00000000000000000000000000001100 <
b00100010000100110000000000000001 =
b00000 >
b00000000000000000000000000000001 C
b00000000000000000000000000001100 S
b00000000000000000000000000010000 T
b00001000010011000000000000000100 U
b00001000010011000000000000001000 V
b00000000000000000000000000000100 X
b00001001100000000000000010000000 Y
0]
b00000000000000000000000000001100 ^
b00000000000000000000000000001000 `
b00000000000000000000000000001000 a
b00000000000000000000000000001100 c
b00000000000000000000000000001100 d
b00100010000100110000000000000001 e
b0000010 f
b10011 g
b00000 h
b00000 j
0k
b10011 m
b00000 n
b00000000000000000000000000000001 t
b000001 }
0,"
b001000 -"
b00000000000000000000000000001100 7"
b00000000000000000000000000010000 8"
b00000000000000000000000000001100 :"
b00000000000000000000000000001100 >"
b00001000010011000000000000001000 ?"
b00001001100000000000000010000000 A"
b00000000000000000000000000001100 C"
b00000000000000000000000000001100 D"
b00000000000000000000000000000100 E"
b00000000000000000000000000010000 F"
b00000000000000000000000000010000 G"
b00001000010011000000000000000100 H"
b00001000010011000000000000001000 J"
b00001000010011000000000000001000 K"
#43000000
1!
0#
b110 (
1*
1,
1.
00
b110 5
17
b10011 >
b00000000000000000000000000000001 ?
b00000000000000000000000000010100 @
b00000000000000000000000000000000 A
b00000000000000000000000000010101 B
b00000000000000000000000000010101 G
0L
b110 N
1P
b00000000000000000000000000010100 Z
1]
0i
b10011 j
1k
b10011 n
b00000000000000000000000000010100 o
b00000000000000000000000000000000 p
b00000000000000000000000000010101 q
b00000000000000000000000000000000 s
1u
b00000000000000000000000000000001 v
b00000000000000000000000000010100 w
b00000000000000000000000000000001 x
b00000000000000000000000000010101 |
b110 !"
b00000000000000000000000000000000 &"
b0000101 '"
b00000000000000000000000000010101 ("
b00000000000000000000000000010101 +"
1,"
0."
b110 3"
15"
b00000000000000000000000000010100 @"
#53000000
0!
b000000 "
0,
0.
b000000 /
b00000000000000000000000000010000 :
b00000000000000000000000000001100 ;
b00000000000000000000000000010000 <
b00000010000100111001000000100100 =
b00000000000000001001000000100100 ?
b00000000000000001001000000111000 B
b00000000000000001001000000100100 C
b00000000000000001001000000111000 G
b00000000000000000000000000010000 S
b00000000000000100100000010100000 T
b00001000010011100100000010010000 U
b00001000010011100100000010010100 V
b00000000000000100100000010010000 X
b00001001110010000001001000000000 Y
0]
b00000000000000000000000000010000 ^
b00000000000000000000000000001100 `
b00000000000000000000000000001100 a
b00000000000000000000000000010000 c
b00000000000000000000000000010000 d
b00000010000100111001000000100100 e
b0000011 f
b10010 h
0k
b00000000000000001001000000111000 q
b00000000000000001001000000100100 t
b00000000000000001001000000100100 v
b00000000000000001001000000100100 x
b00000000000000001001000000111000 |
b100100 }
b0001110 '"
b00000000000000001001000000111000 ("
b00000000000000001001000000111000 +"
0,"
b000000 -"
b00000000000000000000000000010000 7"
b00000000000000100100000010100000 8"
b00000000000000000000000000010000 :"
b00000000000000000000000000010000 >"
b00001000010011100100000010010100 ?"
b00001001110010000001001000000000 A"
b00000000000000000000000000010000 C"
b00000000000000000000000000010000 D"
b00000000000000100100000010010000 E"
b00000000000000100100000010100000 F"
b00000000000000100100000010100000 G"
b00001000010011100100000010010000 H"
b00001000010011100100000010010100 J"
b00001000010011100100000010010100 K"
#63000000
1!
1#
b000 (
0*
1,
1.
10
b000 5
07
b10010 >
b00000000000000000000000000010101 ?
b00000000000000000000000000010101 A
b00000000000000000000000000010100 B
b0000 D
b00000000000000000000000000010100 G
1L
b000 N
0P
1]
1i
b10010 j
1k
b10010 n
b00000000000000000000000000010101 p
b00000000000000000000000000010100 q
b00000000000000000000000000010101 s
0u
b00000000000000000000000000010101 v
b00000000000000000000000000010101 x
b0000 y
b00000000000000000000000000010100 |
b000 !"
b0000 ""
b00000000000000000000000000010101 &"
b0000101 '"
b00000000000000000000000000010100 ("
b00000000000000000000000000010100 +"
1,"
1."
b000 3"
05"
#73000000
0!
0,
0.
b00000000000000000000000000010100 :
b00000000000000000000000000010000 ;
b00000000000000000000000000010100 <
b00000000000000000000000000000000 =
b00000 >
b00000001010100000000000000000000 B
b00000000000000000000000000000000 C
b0111 D
b00000001010100000000000000000000 G
b00000000000000000000000000010100 S
b00000000000000000000000000010100 T
b00000000000000000000000000000000 U
b00000000000000000000000000000100 V
b00000000000000000000000000000000 X
b00000000000000000000000000000000 Y
0]
b00000000000000000000000000010100 ^
b00000000000000000000000000010000 `
b00000000000000000000000000010000 a
b00000000000000000000000000010100 c
b00000000000000000000000000010100 d
b00000000000000000000000000000000 e
b0000100 f
b00000 g
b00000 h
b00000 j
0k
b00000 l
b00000 m
b00000 n
b00000001010100000000000000000000 q
b00000000000000000000000000000000 t
b0111 y
b00000001010100000000000000000000 |
b000000 }
b0111 ""
b0000000 '"
b00000001010100000000000000000000 ("
b00000001010100000000000000000000 +"
0,"
b00000000000000000000000000010100 7"
b00000000000000000000000000010100 8"
b00000000000000000000000000010100 :"
b00000000000000000000000000010100 >"
b00000000000000000000000000000100 ?"
b00000000000000000000000000000000 A"
b00000000000000000000000000010100 C"
b00000000000000000000000000010100 D"
b00000000000000000000000000000000 E"
b00000000000000000000000000010100 F"
b00000000000000000000000000010100 G"
b00000000000000000000000000000000 H"
b00000000000000000000000000000100 J"
b00000000000000000000000000000100 K"
#83000000
1!
1,
1.
b00000000000000000000000000000000 @
b00000000000000000000000000010101 B
b00000000000000000000000000010101 G
b00000000000000000000000000000000 Z
1]
1k
b00000000000000000000000000000000 o
b00000000000000000000000000010101 q
b00000000000000000000000000000000 w
b00000000000000000000000000010101 |
b0000101 '"
b00000000000000000000000000010101 ("
b00000000000000000000000000010101 +"
1,"
b00000000000000000000000000000000 @"
#93000000
0!
0,
0.
b00000000000000000000000000011000 :
b00000000000000000000000000010100 ;
b00000000000000000000000000011000 <
b00000000000000000000000000011000 S
b00000000000000000000000000011000 T
0]
b00000000000000000000000000011000 ^
b00000000000000000000000000010100 `
b00000000000000000000000000010100 a
b00000000000000000000000000011000 c
b00000000000000000000000000011000 d
b0000101 f
0k
0,"
b00000000000000000000000000011000 7"
b00000000000000000000000000011000 8"
b00000000000000000000000000011000 :"
b00000000000000000000000000011000 >"
b00000000000000000000000000011000 C"
b00000000000000000000000000011000 D"
b00000000000000000000000000011000 F"
b00000000000000000000000000011000 G"
