test.vcd
$date
  Tue Dec 10 22:51:45 2019
$end
$version
  GHDL v0
$end
$timescale
  1 fs
$end
$scope module standard $end
$upscope $end
$scope module std_logic_1164 $end
$upscope $end
$scope module numeric_std $end
$upscope $end
$scope module test_bench $end
$var reg 1 ! clock $end
$var reg 6 " instruction[5:0] $end
$var reg 1 # regdst $end
$var reg 2 $ jump[1:0] $end
$var reg 1 % branch $end
$var reg 1 & memread $end
$var reg 1 ' memtoreg $end
$var reg 3 ( aluop[2:0] $end
$var reg 1 ) memwrite $end
$var reg 1 * alusrc $end
$var reg 1 + regwrite $end
$var reg 1 , clock_real $end
$var reg 1 - resetador_de_pc $end
$scope module mip0 $end
$var reg 1 . clk $end
$var reg 6 / instruction[5:0] $end
$var reg 1 0 regdst $end
$var reg 2 1 jump[1:0] $end
$var reg 1 2 branch $end
$var reg 1 3 memread $end
$var reg 1 4 memtoreg $end
$var reg 3 5 aluop[2:0] $end
$var reg 1 6 memwrite $end
$var reg 1 7 alusrc $end
$var reg 1 8 regwrite $end
$var reg 1 9 reset_pc $end
$var reg 32 : mux3_to_pc[31:0] $end
$var reg 32 ; pc_to_instruction_adder[31:0] $end
$var reg 32 < somador_out[31:0] $end
$var reg 32 = instruction_memory_out[31:0] $end
$var reg 5 > mux0_5_out[4:0] $end
$var reg 32 ? mux0_32_out[31:0] $end
$var reg 32 @ banco_reg_output1_out[31:0] $end
$var reg 32 A banco_reg_output2_out[31:0] $end
$var reg 32 B data_out_reg[31:0] $end
$var reg 32 C extented_instruction[31:0] $end
$var reg 4 D alu_op_out[3:0] $end
$var reg 1 E alu_zero_out $end
$var reg 1 F alu_negative_out $end
$var reg 32 G alu_result_out[31:0] $end
$var reg 32 H data_memory_out[31:0] $end
$var reg 1 I control_mem_to_reg $end
$var reg 2 J control_jmp[1:0] $end
$var reg 1 K control_branch $end
$var reg 1 L control_regdest $end
$var reg 1 M control_memread $end
$var reg 3 N control_alu_op[2:0] $end
$var reg 1 O control_memwrite $end
$var reg 1 P control_alusrc $end
$var reg 1 Q control_reg_write $end
$var reg 1 R branch_and_zero $end
$var reg 32 S saida_mux2[31:0] $end
$var reg 32 T somador2_out[31:0] $end
$var reg 32 U jump_adress_before_add[31:0] $end
$var reg 32 V jump_adress_after_add[31:0] $end
$var reg 32 W valor4[31:0] $end
$var reg 32 X shift_left0[31:0] $end
$var reg 32 Y jal[31:0] $end
$var reg 32 Z jr[31:0] $end
$var reg 1 [ alu_jr_to_jr $end
$var reg 2 \ mux_control_to_mux[1:0] $end
$scope module pc0 $end
$var reg 1 ] clk $end
$var reg 32 ^ entrada[31:0] $end
$var reg 1 _ reset $end
$var reg 32 ` saida[31:0] $end
$upscope $end
$scope module somador4 $end
$var reg 32 a number1[31:0] $end
$var reg 32 b number2[31:0] $end
$var reg 32 c saida[31:0] $end
$var reg 32 d temp[31:0] $end
$upscope $end
$scope module instructions $end
$var reg 32 e data_out[31:0] $end
$var reg 7 f address[6:0] $end
$comment data_mem is not handled $end
$upscope $end
$scope module mux_banco_registradores $end
$var reg 5 g entrada0[4:0] $end
$var reg 5 h entrada1[4:0] $end
$var reg 1 i seletor $end
$var reg 5 j saida[4:0] $end
$upscope $end
$scope module bank $end
$var reg 1 k clock $end
$var reg 5 l address1[4:0] $end
$var reg 5 m address2[4:0] $end
$var reg 5 n write_address[4:0] $end
$var reg 32 o output1[31:0] $end
$var reg 32 p output2[31:0] $end
$var reg 32 q write_data[31:0] $end
$var reg 1 r write_enable $end
$comment data_mem is not handled $end
$upscope $end
$scope module mux_saida_banco_registradores $end
$var reg 32 s entrada0[31:0] $end
$var reg 32 t entrada1[31:0] $end
$var reg 1 u seletor $end
$var reg 32 v saida[31:0] $end
$upscope $end
$scope module alu0 $end
$var reg 32 w a[31:0] $end
$var reg 32 x b[31:0] $end
$var reg 4 y op[3:0] $end
$var reg 1 z zero $end
$var reg 1 { negative $end
$var reg 32 | result[31:0] $end
$upscope $end
$scope module alu_control $end
$var reg 6 } instruction_in[5:0] $end
$var reg 3 !" alu_op[2:0] $end
$var reg 4 "" alu_op_out[3:0] $end
$var reg 1 #" jr $end
$upscope $end
$scope module memoria_de_dados $end
$var reg 1 $" write_enable $end
$var reg 32 %" data_out[31:0] $end
$var reg 32 &" data_in[31:0] $end
$var reg 7 '" address[6:0] $end
$comment data_mem is not handled $end
$upscope $end
$scope module mux_saida_memoria_de_dados $end
$var reg 32 (" entrada0[31:0] $end
$var reg 32 )" entrada1[31:0] $end
$var reg 1 *" seletor $end
$var reg 32 +" saida[31:0] $end
$upscope $end
$scope module controle0 $end
$var reg 1 ," clk $end
$var reg 6 -" instruction[5:0] $end
$var reg 1 ." regdst $end
$var reg 2 /" jump[1:0] $end
$var reg 1 0" branch $end
$var reg 1 1" memread $end
$var reg 1 2" memtoreg $end
$var reg 3 3" aluop[2:0] $end
$var reg 1 4" memwrite $end
$var reg 1 5" alusrc $end
$var reg 1 6" regwrite $end
$upscope $end
$scope module mux_seleciona_pc $end
$var reg 32 7" entrada0[31:0] $end
$var reg 32 8" entrada1[31:0] $end
$var reg 1 9" seletor $end
$var reg 32 :" saida[31:0] $end
$upscope $end
$scope module jump_control0 $end
$var reg 1 ;" jr $end
$var reg 2 <" jump_control[1:0] $end
$var reg 2 =" mux_control[1:0] $end
$upscope $end
$scope module mux3_32_2bits $end
$var reg 32 >" entrada0[31:0] $end
$var reg 32 ?" entrada1[31:0] $end
$var reg 32 @" entrada2[31:0] $end
$var reg 32 A" entrada3[31:0] $end
$var reg 2 B" seletor[1:0] $end
$var reg 32 C" saida[31:0] $end
$upscope $end
$scope module somador4_2 $end
$var reg 32 D" number1[31:0] $end
$var reg 32 E" number2[31:0] $end
$var reg 32 F" saida[31:0] $end
$var reg 32 G" temp[31:0] $end
$upscope $end
$scope module somador4_3 $end
$var reg 32 H" number1[31:0] $end
$var reg 32 I" number2[31:0] $end
$var reg 32 J" saida[31:0] $end
$var reg 32 K" temp[31:0] $end
$upscope $end
$upscope $end
$upscope $end
$enddefinitions $end
#0
U!
b001000 "
U#
bUU $
U%
U&
U'
bUUU (
U)
U*
U+
U,
1-
U.
b001000 /
U0
bUU 1
U2
U3
U4
bUUU 5
U6
U7
U8
19
bUUUUUUUUUUUUUUUUUUUUUUUUUUUUUUUU :
bUUUUUUUUUUUUUUUUUUUUUUUUUUUUUUUU ;
bXXXXXXXXXXXXXXXXXXXXXXXXXXXXXXXX <
b00100001000010000000000001100100 =
bUUUUU >
bUUUUUUUUUUUUUUUUUUUUUUUUUUUUUUUU ?
b00000000000000000000000000000000 @
b00000000000000000000000000000000 A
bUUUUUUUUUUUUUUUUUUUUUUUUUUUUUUUU B
b00000000000000000000000001100100 C
bUUUU D
1E
1F
b00000000000000000000000000000000 G
b00000000000000000000000000000000 H
UI
bUU J
UK
UL
UM
bUUU N
UO
UP
UQ
UR
bXXXXXXXXXXXXXXXXXXXXXXXXXXXXXXXX S
bXXXXXXXXXXXXXXXXXXXXXXXXXXXXXXXX T
bUUUU0100001000000000000110010000 U
bXXXXXXXXXXXXXXXXXXXXXXXXXXXXXXXX V
b00000000000000000000000000000100 W
b00000000000000000000000110010000 X
b10000100000000000011001000000000 Y
b00000000000000000000000000000000 Z
0[
bUU \
U]
bUUUUUUUUUUUUUUUUUUUUUUUUUUUUUUUU ^
1_
bUUUUUUUUUUUUUUUUUUUUUUUUUUUUUUUU `
bUUUUUUUUUUUUUUUUUUUUUUUUUUUUUUUU a
b00000000000000000000000000000100 b
bXXXXXXXXXXXXXXXXXXXXXXXXXXXXXXXX c
bXXXXXXXXXXXXXXXXXXXXXXXXXXXXXXXX d
b00100001000010000000000001100100 e
bUUUUUUU f
b01000 g
b00000 h
Ui
bUUUUU j
Uk
b01000 l
b01000 m
bUUUUU n
b00000000000000000000000000000000 o
b00000000000000000000000000000000 p
bUUUUUUUUUUUUUUUUUUUUUUUUUUUUUUUU q
Ur
b00000000000000000000000000000000 s
b00000000000000000000000001100100 t
Uu
bUUUUUUUUUUUUUUUUUUUUUUUUUUUUUUUU v
b00000000000000000000000000000000 w
bUUUUUUUUUUUUUUUUUUUUUUUUUUUUUUUU x
bUUUU y
1z
1{
b00000000000000000000000000000000 |
b100100 }
bUUU !"
bUUUU ""
0#"
U$"
b00000000000000000000000000000000 %"
b00000000000000000000000000000000 &"
b0000000 '"
b00000000000000000000000000000000 ("
b00000000000000000000000000000000 )"
U*"
bUUUUUUUUUUUUUUUUUUUUUUUUUUUUUUUU +"
U,"
b001000 -"
U."
bUU /"
U0"
U1"
U2"
bUUU 3"
U4"
U5"
U6"
bXXXXXXXXXXXXXXXXXXXXXXXXXXXXXXXX 7"
bXXXXXXXXXXXXXXXXXXXXXXXXXXXXXXXX 8"
U9"
bXXXXXXXXXXXXXXXXXXXXXXXXXXXXXXXX :"
0;"
bUU <"
bUU ="
bXXXXXXXXXXXXXXXXXXXXXXXXXXXXXXXX >"
bXXXXXXXXXXXXXXXXXXXXXXXXXXXXXXXX ?"
b00000000000000000000000000000000 @"
b10000100000000000011001000000000 A"
bUU B"
bUUUUUUUUUUUUUUUUUUUUUUUUUUUUUUUU C"
bXXXXXXXXXXXXXXXXXXXXXXXXXXXXXXXX D"
b00000000000000000000000110010000 E"
bXXXXXXXXXXXXXXXXXXXXXXXXXXXXXXXX F"
bXXXXXXXXXXXXXXXXXXXXXXXXXXXXXXXX G"
bUUUU0100001000000000000110010000 H"
b00000000000000000000000000000000 I"
bXXXXXXXXXXXXXXXXXXXXXXXXXXXXXXXX J"
bXXXXXXXXXXXXXXXXXXXXXXXXXXXXXXXX K"
#1000000
0!
0,
0.
b00000000000000000000000000000000 ;
b00000000000000000000000000000100 <
b00000000000000000000000110010100 T
b00000100001000000000000110010000 U
b00000100001000000000000110010000 V
0]
b00000000000000000000000000000000 `
b00000000000000000000000000000000 a
b00000000000000000000000000000100 c
b00000000000000000000000000000100 d
b0000000 f
0k
0,"
b00000000000000000000000000000100 7"
b00000000000000000000000110010100 8"
b00000100001000000000000110010000 ?"
b00000000000000000000000000000100 D"
b00000000000000000000000110010100 F"
b00000000000000000000000110010100 G"
b00000100001000000000000110010000 H"
b00000100001000000000000110010000 J"
b00000100001000000000000110010000 K"
#2000000
1!
0#
b00 $
0%
0&
0'
b110 (
0)
1*
1+
1,
1.
00
b00 1
02
03
04
b110 5
06
17
18
b00000000000000000000000000000100 :
b01000 >
b00000000000000000000000001100100 ?
b00000000000000000000000001100100 B
b0010 D
0E
b00000000000000000000000001100100 G
0I
b00 J
0K
0L
0M
b110 N
0O
1P
1Q
0R
b00000000000000000000000000000100 S
b00 \
1]
b00000000000000000000000000000100 ^
0i
b01000 j
1k
b01000 n
b00000000000000000000000001100100 q
1r
1u
b00000000000000000000000001100100 v
b00000000000000000000000001100100 x
b0010 y
0z
b00000000000000000000000001100100 |
b110 !"
b0010 ""
0$"
b0011001 '"
b00000000000000000000000001100100 ("
0*"
b00000000000000000000000001100100 +"
1,"
0."
b00 /"
00"
01"
02"
b110 3"
04"
15"
16"
09"
b00000000000000000000000000000100 :"
b00 <"
b00 ="
b00000000000000000000000000000100 >"
b00 B"
b00000000000000000000000000000100 C"
#3000000
0-
09
0_
#13000000
0!
b000010 "
0,
0.
b000010 /
b00000000000000000000000000001000 :
b00000000000000000000000000000100 ;
b00000000000000000000000000001000 <
b00001000000000000000000000000000 =
b00000 >
b00000000000000000000000000000000 ?
b00000000000000000000000000000000 B
b00000000000000000000000000000000 C
1E
b00000000000000000000000000000000 G
b00000000000000000000000000001000 S
b00000000000000000000000000001000 T
b00000000000000000000000000000000 U
b00000000000000000000000000000000 V
b00000000000000000000000000000000 X
b00000000000000000000000000000000 Y
0]
b00000000000000000000000000001000 ^
b00000000000000000000000000000100 `
b00000000000000000000000000000100 a
b00000000000000000000000000001000 c
b00000000000000000000000000001000 d
b00001000000000000000000000000000 e
b0000001 f
b00000 g
b00000 j
0k
b00000 l
b00000 m
b00000 n
b00000000000000000000000000000000 q
b00000000000000000000000000000000 t
b00000000000000000000000000000000 v
b00000000000000000000000000000000 x
1z
b00000000000000000000000000000000 |
b000000 }
b0000000 '"
b00000000000000000000000000000000 ("
b00000000000000000000000000000000 +"
0,"
b000010 -"
b00000000000000000000000000001000 7"
b00000000000000000000000000001000 8"
b00000000000000000000000000001000 :"
b00000000000000000000000000001000 >"
b00000000000000000000000000000000 ?"
b00000000000000000000000000000000 A"
b00000000000000000000000000001000 C"
b00000000000000000000000000001000 D"
b00000000000000000000000000000000 E"
b00000000000000000000000000001000 F"
b00000000000000000000000000001000 G"
b00000000000000000000000000000000 H"
b00000000000000000000000000000000 J"
b00000000000000000000000000000000 K"
#23000000
1!
b01 $
b010 (
0*
0+
1,
1.
b01 1
b010 5
07
08
b00000000000000000000000000000000 :
b0011 D
b01 J
b010 N
0P
0Q
b01 \
1]
b00000000000000000000000000000000 ^
1k
0r
0u
b0011 y
b010 !"
b0011 ""
1,"
b01 /"
b010 3"
05"
06"
b01 <"
b01 ="
b01 B"
b00000000000000000000000000000000 C"
#33000000
0!
b001000 "
0,
0.
b001000 /
b00000100001000000000000110010000 :
b00000000000000000000000000000000 ;
b00000000000000000000000000000100 <
b00100001000010000000000001100100 =
b01000 >
b00000000000000000000000001100100 C
b00000000000000000000000000000100 S
b00000000000000000000000110010100 T
b00000100001000000000000110010000 U
b00000100001000000000000110010000 V
b00000000000000000000000110010000 X
b10000100000000000011001000000000 Y
0]
b00000100001000000000000110010000 ^
b00000000000000000000000000000000 `
b00000000000000000000000000000000 a
b00000000000000000000000000000100 c
b00000000000000000000000000000100 d
b00100001000010000000000001100100 e
b0000000 f
b01000 g
b01000 j
0k
b01000 l
b01000 m
b01000 n
b00000000000000000000000001100100 t
b100100 }
0,"
b001000 -"
b00000000000000000000000000000100 7"
b00000000000000000000000110010100 8"
b00000000000000000000000000000100 :"
b00000000000000000000000000000100 >"
b00000100001000000000000110010000 ?"
b10000100000000000011001000000000 A"
b00000100001000000000000110010000 C"
b00000000000000000000000000000100 D"
b00000000000000000000000110010000 E"
b00000000000000000000000110010100 F"
b00000000000000000000000110010100 G"
b00000100001000000000000110010000 H"
b00000100001000000000000110010000 J"
b00000100001000000000000110010000 K"
#43000000
1!
b00 $
b110 (
1*
1+
1,
1.
b00 1
b110 5
17
18
b00000000000000000000000000000100 :
b00000000000000000000000001100100 ?
b00000000000000000000000001100100 @
b00000000000000000000000001100100 A
b00000000000000000000000011001000 B
b0010 D
0E
b00000000000000000000000011001000 G
b00 J
b110 N
1P
1Q
b00000000000000000000000001100100 Z
b00 \
1]
b00000000000000000000000000000100 ^
1k
b00000000000000000000000001100100 o
b00000000000000000000000001100100 p
b00000000000000000000000011001000 q
1r
b00000000000000000000000001100100 s
1u
b00000000000000000000000001100100 v
b00000000000000000000000001100100 w
b00000000000000000000000001100100 x
b0010 y
0z
b00000000000000000000000011001000 |
b110 !"
b0010 ""
b00000000000000000000000001100100 &"
b0110010 '"
b00000000000000000000000011001000 ("
b00000000000000000000000011001000 +"
1,"
b00 /"
b110 3"
15"
16"
b00 <"
b00 ="
b00000000000000000000000001100100 @"
b00 B"
b00000000000000000000000000000100 C"
#53000000
0!
b000010 "
0,
0.
b000010 /
b00000000000000000000000000001000 :
b00000000000000000000000000000100 ;
b00000000000000000000000000001000 <
b00001000000000000000000000000000 =
b00000 >
b00000000000000000000000000000000 ?
b00000000000000000000000001100100 B
b00000000000000000000000000000000 C
b00000000000000000000000001100100 G
b00000000000000000000000000001000 S
b00000000000000000000000000001000 T
b00000000000000000000000000000000 U
b00000000000000000000000000000000 V
b00000000000000000000000000000000 X
b00000000000000000000000000000000 Y
0]
b00000000000000000000000000001000 ^
b00000000000000000000000000000100 `
b00000000000000000000000000000100 a
b00000000000000000000000000001000 c
b00000000000000000000000000001000 d
b00001000000000000000000000000000 e
b0000001 f
b00000 g
b00000 j
0k
b00000 l
b00000 m
b00000 n
b00000000000000000000000001100100 q
b00000000000000000000000000000000 t
b00000000000000000000000000000000 v
b00000000000000000000000000000000 x
b00000000000000000000000001100100 |
b000000 }
b0011001 '"
b00000000000000000000000001100100 ("
b00000000000000000000000001100100 +"
0,"
b000010 -"
b00000000000000000000000000001000 7"
b00000000000000000000000000001000 8"
b00000000000000000000000000001000 :"
b00000000000000000000000000001000 >"
b00000000000000000000000000000000 ?"
b00000000000000000000000000000000 A"
b00000000000000000000000000001000 C"
b00000000000000000000000000001000 D"
b00000000000000000000000000000000 E"
b00000000000000000000000000001000 F"
b00000000000000000000000000001000 G"
b00000000000000000000000000000000 H"
b00000000000000000000000000000000 J"
b00000000000000000000000000000000 K"
#63000000
1!
b01 $
b010 (
0*
0+
1,
1.
b01 1
b010 5
07
08
b00000000000000000000000000000000 :
b00000000000000000000000001100100 ?
b00000000000000000000000000000000 @
b11111111111111111111111110011100 B
b0011 D
0E
0F
b11111111111111111111111110011100 G
b01 J
b010 N
0P
0Q
b00000000000000000000000000000000 Z
b01 \
1]
b00000000000000000000000000000000 ^
1k
b00000000000000000000000000000000 o
b11111111111111111111111110011100 q
0r
0u
b00000000000000000000000001100100 v
b00000000000000000000000000000000 w
b00000000000000000000000001100100 x
b0011 y
0z
0{
b11111111111111111111111110011100 |
b010 !"
b0011 ""
b1100111 '"
b11111111111111111111111110011100 ("
b11111111111111111111111110011100 +"
1,"
b01 /"
b010 3"
05"
06"
b01 <"
b01 ="
b00000000000000000000000000000000 @"
b01 B"
b00000000000000000000000000000000 C"
#73000000
0!
b001000 "
0,
0.
b001000 /
b00000100001000000000000110010000 :
b00000000000000000000000000000000 ;
b00000000000000000000000000000100 <
b00100001000010000000000001100100 =
b01000 >
b00000000000000000000000001100100 C
b00000000000000000000000000000100 S
b00000000000000000000000110010100 T
b00000100001000000000000110010000 U
b00000100001000000000000110010000 V
b00000000000000000000000110010000 X
b10000100000000000011001000000000 Y
0]
b00000100001000000000000110010000 ^
b00000000000000000000000000000000 `
b00000000000000000000000000000000 a
b00000000000000000000000000000100 c
b00000000000000000000000000000100 d
b00100001000010000000000001100100 e
b0000000 f
b01000 g
b01000 j
0k
b01000 l
b01000 m
b01000 n
b00000000000000000000000001100100 t
b100100 }
0,"
b001000 -"
b00000000000000000000000000000100 7"
b00000000000000000000000110010100 8"
b00000000000000000000000000000100 :"
b00000000000000000000000000000100 >"
b00000100001000000000000110010000 ?"
b10000100000000000011001000000000 A"
b00000100001000000000000110010000 C"
b00000000000000000000000000000100 D"
b00000000000000000000000110010000 E"
b00000000000000000000000110010100 F"
b00000000000000000000000110010100 G"
b00000100001000000000000110010000 H"
b00000100001000000000000110010000 J"
b00000100001000000000000110010000 K"
#83000000
1!
b00 $
b110 (
1*
1+
1,
1.
b00 1
b110 5
17
18
b00000000000000000000000000000100 :
b00000000000000000000000011001000 @
b00000000000000000000000011001000 A
b00000000000000000000000100101100 B
b0010 D
1F
b00000000000000000000000100101100 G
b00 J
b110 N
1P
1Q
b00000000000000000000000011001000 Z
b00 \
1]
b00000000000000000000000000000100 ^
1k
b00000000000000000000000011001000 o
b00000000000000000000000011001000 p
b00000000000000000000000100101100 q
1r
b00000000000000000000000011001000 s
1u
b00000000000000000000000011001000 w
b0010 y
1{
b00000000000000000000000100101100 |
b110 !"
b0010 ""
b00000000000000000000000011001000 &"
b1001011 '"
b00000000000000000000000100101100 ("
b00000000000000000000000100101100 +"
1,"
b00 /"
b110 3"
15"
16"
b00 <"
b00 ="
b00000000000000000000000011001000 @"
b00 B"
b00000000000000000000000000000100 C"
#93000000
0!
b000010 "
0,
0.
b000010 /
b00000000000000000000000000001000 :
b00000000000000000000000000000100 ;
b00000000000000000000000000001000 <
b00001000000000000000000000000000 =
b00000 >
b00000000000000000000000000000000 ?
b00000000000000000000000011001000 B
b00000000000000000000000000000000 C
b00000000000000000000000011001000 G
b00000000000000000000000000001000 S
b00000000000000000000000000001000 T
b00000000000000000000000000000000 U
b00000000000000000000000000000000 V
b00000000000000000000000000000000 X
b00000000000000000000000000000000 Y
0]
b00000000000000000000000000001000 ^
b00000000000000000000000000000100 `
b00000000000000000000000000000100 a
b00000000000000000000000000001000 c
b00000000000000000000000000001000 d
b00001000000000000000000000000000 e
b0000001 f
b00000 g
b00000 j
0k
b00000 l
b00000 m
b00000 n
b00000000000000000000000011001000 q
b00000000000000000000000000000000 t
b00000000000000000000000000000000 v
b00000000000000000000000000000000 x
b00000000000000000000000011001000 |
b000000 }
b0110010 '"
b00000000000000000000000011001000 ("
b00000000000000000000000011001000 +"
0,"
b000010 -"
b00000000000000000000000000001000 7"
b00000000000000000000000000001000 8"
b00000000000000000000000000001000 :"
b00000000000000000000000000001000 >"
b00000000000000000000000000000000 ?"
b00000000000000000000000000000000 A"
b00000000000000000000000000001000 C"
b00000000000000000000000000001000 D"
b00000000000000000000000000000000 E"
b00000000000000000000000000001000 F"
b00000000000000000000000000001000 G"
b00000000000000000000000000000000 H"
b00000000000000000000000000000000 J"
b00000000000000000000000000000000 K"
