test.vcd
$date
  Thu Dec 12 20:08:27 2019
$end
$version
  GHDL v0
$end
$timescale
  1 fs
$end
$scope module standard $end
$upscope $end
$scope module std_logic_1164 $end
$upscope $end
$scope module numeric_std $end
$upscope $end
$scope module test_bench $end
$var reg 1 ! clock $end
$var reg 6 " instruction[5:0] $end
$var reg 1 # regdst $end
$var reg 2 $ jump[1:0] $end
$var reg 2 % branch[1:0] $end
$var reg 1 & memread $end
$var reg 1 ' memtoreg $end
$var reg 3 ( aluop[2:0] $end
$var reg 1 ) memwrite $end
$var reg 1 * alusrc $end
$var reg 1 + regwrite $end
$var reg 1 , clock_real $end
$var reg 1 - resetador_de_pc $end
$scope module mip0 $end
$var reg 1 . clk $end
$var reg 6 / instruction[5:0] $end
$var reg 1 0 regdst $end
$var reg 2 1 jump[1:0] $end
$var reg 2 2 branch[1:0] $end
$var reg 1 3 memread $end
$var reg 1 4 memtoreg $end
$var reg 3 5 aluop[2:0] $end
$var reg 1 6 memwrite $end
$var reg 1 7 alusrc $end
$var reg 1 8 regwrite $end
$var reg 1 9 reset_pc $end
$var reg 32 : mux3_to_pc[31:0] $end
$var reg 32 ; pc_to_instruction_adder[31:0] $end
$var reg 32 < somador_out[31:0] $end
$var reg 32 = instruction_memory_out[31:0] $end
$var reg 5 > mux0_5_out[4:0] $end
$var reg 32 ? mux0_32_out[31:0] $end
$var reg 32 @ banco_reg_output1_out[31:0] $end
$var reg 32 A banco_reg_output2_out[31:0] $end
$var reg 32 B data_out_reg[31:0] $end
$var reg 32 C extented_instruction[31:0] $end
$var reg 1 D branch_and_zero $end
$var reg 4 E alu_op_out[3:0] $end
$var reg 1 F alu_zero_out $end
$var reg 1 G alu_negative_out $end
$var reg 32 H alu_result_out[31:0] $end
$var reg 32 I data_memory_out[31:0] $end
$var reg 1 J control_mem_to_reg $end
$var reg 2 K control_jmp[1:0] $end
$var reg 2 L control_branch[1:0] $end
$var reg 1 M control_regdest $end
$var reg 1 N control_memread $end
$var reg 3 O control_alu_op[2:0] $end
$var reg 1 P control_memwrite $end
$var reg 1 Q control_alusrc $end
$var reg 1 R control_reg_write $end
$var reg 1 S branch_mux $end
$var reg 32 T saida_mux2[31:0] $end
$var reg 32 U somador2_out[31:0] $end
$var reg 32 V jump_adress_before_add[31:0] $end
$var reg 32 W jump_adress_after_add[31:0] $end
$var reg 32 X valor4[31:0] $end
$var reg 32 Y shift_left0[31:0] $end
$var reg 32 Z jal[31:0] $end
$var reg 32 [ jr[31:0] $end
$var reg 1 \ alu_jr_to_jr $end
$var reg 2 ] mux_control_to_mux[1:0] $end
$scope module pc0 $end
$var reg 1 ^ clk $end
$var reg 32 _ entrada[31:0] $end
$var reg 1 ` reset $end
$var reg 32 a saida[31:0] $end
$upscope $end
$scope module somador4 $end
$var reg 32 b number1[31:0] $end
$var reg 32 c number2[31:0] $end
$var reg 32 d saida[31:0] $end
$var reg 32 e temp[31:0] $end
$upscope $end
$scope module instructions $end
$var reg 32 f data_out[31:0] $end
$var reg 7 g address[6:0] $end
$comment data_mem is not handled $end
$upscope $end
$scope module mux_banco_registradores $end
$var reg 5 h entrada0[4:0] $end
$var reg 5 i entrada1[4:0] $end
$var reg 1 j seletor $end
$var reg 5 k saida[4:0] $end
$upscope $end
$scope module bank $end
$var reg 1 l clock $end
$var reg 5 m address1[4:0] $end
$var reg 5 n address2[4:0] $end
$var reg 5 o write_address[4:0] $end
$var reg 32 p output1[31:0] $end
$var reg 32 q output2[31:0] $end
$var reg 32 r write_data[31:0] $end
$var reg 1 s write_enable $end
$comment data_mem is not handled $end
$upscope $end
$scope module branch_control0 $end
$var reg 1 t clock $end
$var reg 2 u branch[1:0] $end
$var reg 1 v zero $end
$var reg 1 w mux_in $end
$upscope $end
$scope module mux_saida_banco_registradores $end
$var reg 32 x entrada0[31:0] $end
$var reg 32 y entrada1[31:0] $end
$var reg 1 z seletor $end
$var reg 32 { saida[31:0] $end
$upscope $end
$scope module alu0 $end
$var reg 32 | a[31:0] $end
$var reg 32 } b[31:0] $end
$var reg 4 !" op[3:0] $end
$var reg 1 "" zero $end
$var reg 1 #" negative $end
$var reg 32 $" result[31:0] $end
$upscope $end
$scope module alu_control $end
$var reg 6 %" instruction_in[5:0] $end
$var reg 3 &" alu_op[2:0] $end
$var reg 4 '" alu_op_out[3:0] $end
$var reg 1 (" jr $end
$upscope $end
$scope module memoria_de_dados $end
$var reg 1 )" write_enable $end
$var reg 32 *" data_out[31:0] $end
$var reg 32 +" data_in[31:0] $end
$var reg 7 ," address[6:0] $end
$comment data_mem is not handled $end
$upscope $end
$scope module mux_saida_memoria_de_dados $end
$var reg 32 -" entrada0[31:0] $end
$var reg 32 ." entrada1[31:0] $end
$var reg 1 /" seletor $end
$var reg 32 0" saida[31:0] $end
$upscope $end
$scope module controle0 $end
$var reg 1 1" clk $end
$var reg 6 2" instruction[5:0] $end
$var reg 1 3" regdst $end
$var reg 2 4" jump[1:0] $end
$var reg 2 5" branch[1:0] $end
$var reg 1 6" memread $end
$var reg 1 7" memtoreg $end
$var reg 3 8" aluop[2:0] $end
$var reg 1 9" memwrite $end
$var reg 1 :" alusrc $end
$var reg 1 ;" regwrite $end
$upscope $end
$scope module mux_seleciona_pc $end
$var reg 32 <" entrada0[31:0] $end
$var reg 32 =" entrada1[31:0] $end
$var reg 1 >" seletor $end
$var reg 32 ?" saida[31:0] $end
$upscope $end
$scope module jump_control0 $end
$var reg 1 @" jr $end
$var reg 2 A" jump_control[1:0] $end
$var reg 2 B" mux_control[1:0] $end
$upscope $end
$scope module mux3_32_2bits $end
$var reg 32 C" entrada0[31:0] $end
$var reg 32 D" entrada1[31:0] $end
$var reg 32 E" entrada2[31:0] $end
$var reg 32 F" entrada3[31:0] $end
$var reg 2 G" seletor[1:0] $end
$var reg 32 H" saida[31:0] $end
$upscope $end
$scope module somador4_2 $end
$var reg 32 I" number1[31:0] $end
$var reg 32 J" number2[31:0] $end
$var reg 32 K" saida[31:0] $end
$var reg 32 L" temp[31:0] $end
$upscope $end
$scope module somador4_3 $end
$var reg 32 M" number1[31:0] $end
$var reg 32 N" number2[31:0] $end
$var reg 32 O" saida[31:0] $end
$var reg 32 P" temp[31:0] $end
$upscope $end
$upscope $end
$upscope $end
$enddefinitions $end
#0
U!
b001101 "
U#
bUU $
bUU %
U&
U'
bUUU (
U)
U*
U+
U,
1-
U.
b001101 /
U0
bUU 1
bUU 2
U3
U4
bUUU 5
U6
U7
U8
19
bUUUUUUUUUUUUUUUUUUUUUUUUUUUUUUUU :
bUUUUUUUUUUUUUUUUUUUUUUUUUUUUUUUU ;
bXXXXXXXXXXXXXXXXXXXXXXXXXXXXXXXX <
b00110110000100000000000000001010 =
bUUUUU >
bUUUUUUUUUUUUUUUUUUUUUUUUUUUUUUUU ?
b00000000000000000000000000000000 @
b00000000000000000000000000000000 A
bUUUUUUUUUUUUUUUUUUUUUUUUUUUUUUUU B
b00000000000000000000000000001010 C
0D
bUUUU E
1F
1G
b00000000000000000000000000000000 H
b00000000000000000000000000000000 I
UJ
bUU K
bUU L
UM
UN
bUUU O
UP
UQ
UR
US
bXXXXXXXXXXXXXXXXXXXXXXXXXXXXXXXX T
bXXXXXXXXXXXXXXXXXXXXXXXXXXXXXXXX U
bUUUU1000010000000000000000101000 V
bXXXXXXXXXXXXXXXXXXXXXXXXXXXXXXXX W
b00000000000000000000000000000100 X
b00000000000000000000000000101000 Y
b00001000000000000000010100000000 Z
b00000000000000000000000000000000 [
0\
bUU ]
U^
bUUUUUUUUUUUUUUUUUUUUUUUUUUUUUUUU _
1`
bUUUUUUUUUUUUUUUUUUUUUUUUUUUUUUUU a
bUUUUUUUUUUUUUUUUUUUUUUUUUUUUUUUU b
b00000000000000000000000000000100 c
bXXXXXXXXXXXXXXXXXXXXXXXXXXXXXXXX d
bXXXXXXXXXXXXXXXXXXXXXXXXXXXXXXXX e
b00110110000100000000000000001010 f
bUUUUUUU g
b10000 h
b00000 i
Uj
bUUUUU k
Ul
b10000 m
b10000 n
bUUUUU o
b00000000000000000000000000000000 p
b00000000000000000000000000000000 q
bUUUUUUUUUUUUUUUUUUUUUUUUUUUUUUUU r
Us
Ut
bUU u
1v
0w
b00000000000000000000000000000000 x
b00000000000000000000000000001010 y
Uz
bUUUUUUUUUUUUUUUUUUUUUUUUUUUUUUUU {
b00000000000000000000000000000000 |
bUUUUUUUUUUUUUUUUUUUUUUUUUUUUUUUU }
bUUUU !"
1""
1#"
b00000000000000000000000000000000 $"
b001010 %"
bUUU &"
bUUUU '"
0("
U)"
b00000000000000000000000000000000 *"
b00000000000000000000000000000000 +"
b0000000 ,"
b00000000000000000000000000000000 -"
b00000000000000000000000000000000 ."
U/"
bUUUUUUUUUUUUUUUUUUUUUUUUUUUUUUUU 0"
U1"
b001101 2"
U3"
bUU 4"
bUU 5"
U6"
U7"
bUUU 8"
U9"
U:"
U;"
bXXXXXXXXXXXXXXXXXXXXXXXXXXXXXXXX <"
bXXXXXXXXXXXXXXXXXXXXXXXXXXXXXXXX ="
0>"
bXXXXXXXXXXXXXXXXXXXXXXXXXXXXXXXX ?"
0@"
bUU A"
bUU B"
bXXXXXXXXXXXXXXXXXXXXXXXXXXXXXXXX C"
bXXXXXXXXXXXXXXXXXXXXXXXXXXXXXXXX D"
b00000000000000000000000000000000 E"
b00001000000000000000010100000000 F"
bUU G"
bUUUUUUUUUUUUUUUUUUUUUUUUUUUUUUUU H"
bXXXXXXXXXXXXXXXXXXXXXXXXXXXXXXXX I"
b00000000000000000000000000101000 J"
bXXXXXXXXXXXXXXXXXXXXXXXXXXXXXXXX K"
bXXXXXXXXXXXXXXXXXXXXXXXXXXXXXXXX L"
bUUUU1000010000000000000000101000 M"
b00000000000000000000000000000000 N"
bXXXXXXXXXXXXXXXXXXXXXXXXXXXXXXXX O"
bXXXXXXXXXXXXXXXXXXXXXXXXXXXXXXXX P"
#1000000
0!
0,
0.
b00000000000000000000000000000000 ;
b00000000000000000000000000000100 <
b00000000000000000000000000000100 T
b00000000000000000000000000101100 U
b00001000010000000000000000101000 V
b00001000010000000000000000101000 W
0^
b00000000000000000000000000000000 a
b00000000000000000000000000000000 b
b00000000000000000000000000000100 d
b00000000000000000000000000000100 e
b0000000 g
0l
0t
01"
b00000000000000000000000000000100 <"
b00000000000000000000000000101100 ="
b00000000000000000000000000000100 ?"
b00000000000000000000000000000100 C"
b00001000010000000000000000101000 D"
b00000000000000000000000000000100 I"
b00000000000000000000000000101100 K"
b00000000000000000000000000101100 L"
b00001000010000000000000000101000 M"
b00001000010000000000000000101000 O"
b00001000010000000000000000101000 P"
#2000000
1!
0#
b00 $
b00 %
0&
0'
b001 (
0)
1*
1+
1,
1.
00
b00 1
b00 2
03
04
b001 5
06
17
18
b00000000000000000000000000000100 :
b10000 >
b00000000000000000000000000001010 ?
b00000000000000000000000000001010 B
b0001 E
0F
b00000000000000000000000000001010 H
0J
b00 K
b00 L
0M
0N
b001 O
0P
1Q
1R
b00 ]
1^
b00000000000000000000000000000100 _
0j
b10000 k
1l
b10000 o
b00000000000000000000000000001010 r
1s
1t
b00 u
0v
1z
b00000000000000000000000000001010 {
b00000000000000000000000000001010 }
b0001 !"
0""
b00000000000000000000000000001010 $"
b001 &"
b0001 '"
0)"
b0000010 ,"
b00000000000000000000000000001010 -"
0/"
b00000000000000000000000000001010 0"
11"
03"
b00 4"
b00 5"
06"
07"
b001 8"
09"
1:"
1;"
b00 A"
b00 B"
b00 G"
b00000000000000000000000000000100 H"
#3000000
0-
09
0`
#13000000
0!
b000000 "
0,
0.
b000000 /
b00000000000000000000000000001000 :
b00000000000000000000000000000100 ;
b00000000000000000000000000001000 <
b00000000000000000000000000000000 =
b00000 >
b00000000000000000000000000000000 ?
b00000000000000000000000000000000 B
b00000000000000000000000000000000 C
1F
b00000000000000000000000000000000 H
b00000000000000000000000000001000 T
b00000000000000000000000000001000 U
b00000000000000000000000000000000 V
b00000000000000000000000000000000 W
b00000000000000000000000000000000 Y
b00000000000000000000000000000000 Z
0^
b00000000000000000000000000001000 _
b00000000000000000000000000000100 a
b00000000000000000000000000000100 b
b00000000000000000000000000001000 d
b00000000000000000000000000001000 e
b00000000000000000000000000000000 f
b0000001 g
b00000 h
b00000 k
0l
b00000 m
b00000 n
b00000 o
b00000000000000000000000000000000 r
0t
1v
b00000000000000000000000000000000 y
b00000000000000000000000000000000 {
b00000000000000000000000000000000 }
1""
b00000000000000000000000000000000 $"
b000000 %"
b0000000 ,"
b00000000000000000000000000000000 -"
b00000000000000000000000000000000 0"
01"
b000000 2"
b00000000000000000000000000001000 <"
b00000000000000000000000000001000 ="
b00000000000000000000000000001000 ?"
b00000000000000000000000000001000 C"
b00000000000000000000000000000000 D"
b00000000000000000000000000000000 F"
b00000000000000000000000000001000 H"
b00000000000000000000000000001000 I"
b00000000000000000000000000000000 J"
b00000000000000000000000000001000 K"
b00000000000000000000000000001000 L"
b00000000000000000000000000000000 M"
b00000000000000000000000000000000 O"
b00000000000000000000000000000000 P"
#23000000
1!
1#
b000 (
0*
1,
1.
10
b000 5
07
b0111 E
1M
b000 O
0Q
1^
1j
1l
1t
0z
b0111 !"
b000 &"
b0111 '"
11"
13"
b000 8"
0:"
#33000000
0!
0,
0.
b00000000000000000000000000001100 :
b00000000000000000000000000001000 ;
b00000000000000000000000000001100 <
b00000000000000000000000000001100 T
b00000000000000000000000000001100 U
0^
b00000000000000000000000000001100 _
b00000000000000000000000000001000 a
b00000000000000000000000000001000 b
b00000000000000000000000000001100 d
b00000000000000000000000000001100 e
b0000010 g
0l
0t
01"
b00000000000000000000000000001100 <"
b00000000000000000000000000001100 ="
b00000000000000000000000000001100 ?"
b00000000000000000000000000001100 C"
b00000000000000000000000000001100 H"
b00000000000000000000000000001100 I"
b00000000000000000000000000001100 K"
b00000000000000000000000000001100 L"
#43000000
1!
1,
1.
1^
1l
1t
11"
#53000000
0!
0,
0.
b00000000000000000000000000010000 :
b00000000000000000000000000001100 ;
b00000000000000000000000000010000 <
b00000000000000000000000000010000 T
b00000000000000000000000000010000 U
0^
b00000000000000000000000000010000 _
b00000000000000000000000000001100 a
b00000000000000000000000000001100 b
b00000000000000000000000000010000 d
b00000000000000000000000000010000 e
b0000011 g
0l
0t
01"
b00000000000000000000000000010000 <"
b00000000000000000000000000010000 ="
b00000000000000000000000000010000 ?"
b00000000000000000000000000010000 C"
b00000000000000000000000000010000 H"
b00000000000000000000000000010000 I"
b00000000000000000000000000010000 K"
b00000000000000000000000000010000 L"
#63000000
1!
1,
1.
1^
1l
1t
11"
#73000000
0!
0,
0.
b00000000000000000000000000010100 :
b00000000000000000000000000010000 ;
b00000000000000000000000000010100 <
b00000000000000000000000000010100 T
b00000000000000000000000000010100 U
0^
b00000000000000000000000000010100 _
b00000000000000000000000000010000 a
b00000000000000000000000000010000 b
b00000000000000000000000000010100 d
b00000000000000000000000000010100 e
b0000100 g
0l
0t
01"
b00000000000000000000000000010100 <"
b00000000000000000000000000010100 ="
b00000000000000000000000000010100 ?"
b00000000000000000000000000010100 C"
b00000000000000000000000000010100 H"
b00000000000000000000000000010100 I"
b00000000000000000000000000010100 K"
b00000000000000000000000000010100 L"
#83000000
1!
1,
1.
1^
1l
1t
11"
#93000000
0!
0,
0.
b00000000000000000000000000011000 :
b00000000000000000000000000010100 ;
b00000000000000000000000000011000 <
b00000000000000000000000000011000 T
b00000000000000000000000000011000 U
0^
b00000000000000000000000000011000 _
b00000000000000000000000000010100 a
b00000000000000000000000000010100 b
b00000000000000000000000000011000 d
b00000000000000000000000000011000 e
b0000101 g
0l
0t
01"
b00000000000000000000000000011000 <"
b00000000000000000000000000011000 ="
b00000000000000000000000000011000 ?"
b00000000000000000000000000011000 C"
b00000000000000000000000000011000 H"
b00000000000000000000000000011000 I"
b00000000000000000000000000011000 K"
b00000000000000000000000000011000 L"
#103000000
1!
1,
1.
1^
1l
1t
11"
#113000000
0!
0,
0.
b00000000000000000000000000011100 :
b00000000000000000000000000011000 ;
b00000000000000000000000000011100 <
b00000000000000000000000000011100 T
b00000000000000000000000000011100 U
0^
b00000000000000000000000000011100 _
b00000000000000000000000000011000 a
b00000000000000000000000000011000 b
b00000000000000000000000000011100 d
b00000000000000000000000000011100 e
b0000110 g
0l
0t
01"
b00000000000000000000000000011100 <"
b00000000000000000000000000011100 ="
b00000000000000000000000000011100 ?"
b00000000000000000000000000011100 C"
b00000000000000000000000000011100 H"
b00000000000000000000000000011100 I"
b00000000000000000000000000011100 K"
b00000000000000000000000000011100 L"
#123000000
1!
1,
1.
1^
1l
1t
11"
#133000000
0!
0,
0.
b00000000000000000000000000100000 :
b00000000000000000000000000011100 ;
b00000000000000000000000000100000 <
b00000000000000000000000000100000 T
b00000000000000000000000000100000 U
0^
b00000000000000000000000000100000 _
b00000000000000000000000000011100 a
b00000000000000000000000000011100 b
b00000000000000000000000000100000 d
b00000000000000000000000000100000 e
b0000111 g
0l
0t
01"
b00000000000000000000000000100000 <"
b00000000000000000000000000100000 ="
b00000000000000000000000000100000 ?"
b00000000000000000000000000100000 C"
b00000000000000000000000000100000 H"
b00000000000000000000000000100000 I"
b00000000000000000000000000100000 K"
b00000000000000000000000000100000 L"
#143000000
1!
1,
1.
1^
1l
1t
11"
#153000000
0!
0,
0.
b00000000000000000000000000100100 :
b00000000000000000000000000100000 ;
b00000000000000000000000000100100 <
b00000000000000000000000000100100 T
b00000000000000000000000000100100 U
0^
b00000000000000000000000000100100 _
b00000000000000000000000000100000 a
b00000000000000000000000000100000 b
b00000000000000000000000000100100 d
b00000000000000000000000000100100 e
b0001000 g
0l
0t
01"
b00000000000000000000000000100100 <"
b00000000000000000000000000100100 ="
b00000000000000000000000000100100 ?"
b00000000000000000000000000100100 C"
b00000000000000000000000000100100 H"
b00000000000000000000000000100100 I"
b00000000000000000000000000100100 K"
b00000000000000000000000000100100 L"
#163000000
1!
1,
1.
1^
1l
1t
11"
#173000000
0!
0,
0.
b00000000000000000000000000101000 :
b00000000000000000000000000100100 ;
b00000000000000000000000000101000 <
b00000000000000000000000000101000 T
b00000000000000000000000000101000 U
0^
b00000000000000000000000000101000 _
b00000000000000000000000000100100 a
b00000000000000000000000000100100 b
b00000000000000000000000000101000 d
b00000000000000000000000000101000 e
b0001001 g
0l
0t
01"
b00000000000000000000000000101000 <"
b00000000000000000000000000101000 ="
b00000000000000000000000000101000 ?"
b00000000000000000000000000101000 C"
b00000000000000000000000000101000 H"
b00000000000000000000000000101000 I"
b00000000000000000000000000101000 K"
b00000000000000000000000000101000 L"
#183000000
1!
1,
1.
1^
1l
1t
11"
#193000000
0!
0,
0.
b00000000000000000000000000101100 :
b00000000000000000000000000101000 ;
b00000000000000000000000000101100 <
b00000000000000000000000000101100 T
b00000000000000000000000000101100 U
0^
b00000000000000000000000000101100 _
b00000000000000000000000000101000 a
b00000000000000000000000000101000 b
b00000000000000000000000000101100 d
b00000000000000000000000000101100 e
b0001010 g
0l
0t
01"
b00000000000000000000000000101100 <"
b00000000000000000000000000101100 ="
b00000000000000000000000000101100 ?"
b00000000000000000000000000101100 C"
b00000000000000000000000000101100 H"
b00000000000000000000000000101100 I"
b00000000000000000000000000101100 K"
b00000000000000000000000000101100 L"
#203000000
1!
1,
1.
1^
1l
1t
11"
#213000000
0!
0,
0.
b00000000000000000000000000110000 :
b00000000000000000000000000101100 ;
b00000000000000000000000000110000 <
b00000000000000000000000000110000 T
b00000000000000000000000000110000 U
0^
b00000000000000000000000000110000 _
b00000000000000000000000000101100 a
b00000000000000000000000000101100 b
b00000000000000000000000000110000 d
b00000000000000000000000000110000 e
b0001011 g
0l
0t
01"
b00000000000000000000000000110000 <"
b00000000000000000000000000110000 ="
b00000000000000000000000000110000 ?"
b00000000000000000000000000110000 C"
b00000000000000000000000000110000 H"
b00000000000000000000000000110000 I"
b00000000000000000000000000110000 K"
b00000000000000000000000000110000 L"
#223000000
1!
1,
1.
1^
1l
1t
11"
#233000000
0!
0,
0.
b00000000000000000000000000110100 :
b00000000000000000000000000110000 ;
b00000000000000000000000000110100 <
b00000000000000000000000000110100 T
b00000000000000000000000000110100 U
0^
b00000000000000000000000000110100 _
b00000000000000000000000000110000 a
b00000000000000000000000000110000 b
b00000000000000000000000000110100 d
b00000000000000000000000000110100 e
b0001100 g
0l
0t
01"
b00000000000000000000000000110100 <"
b00000000000000000000000000110100 ="
b00000000000000000000000000110100 ?"
b00000000000000000000000000110100 C"
b00000000000000000000000000110100 H"
b00000000000000000000000000110100 I"
b00000000000000000000000000110100 K"
b00000000000000000000000000110100 L"
#243000000
1!
1,
1.
1^
1l
1t
11"
#253000000
0!
0,
0.
b00000000000000000000000000111000 :
b00000000000000000000000000110100 ;
b00000000000000000000000000111000 <
b00000000000000000000000000111000 T
b00000000000000000000000000111000 U
0^
b00000000000000000000000000111000 _
b00000000000000000000000000110100 a
b00000000000000000000000000110100 b
b00000000000000000000000000111000 d
b00000000000000000000000000111000 e
b0001101 g
0l
0t
01"
b00000000000000000000000000111000 <"
b00000000000000000000000000111000 ="
b00000000000000000000000000111000 ?"
b00000000000000000000000000111000 C"
b00000000000000000000000000111000 H"
b00000000000000000000000000111000 I"
b00000000000000000000000000111000 K"
b00000000000000000000000000111000 L"
#263000000
1!
1,
1.
1^
1l
1t
11"
#273000000
0!
0,
0.
b00000000000000000000000000111100 :
b00000000000000000000000000111000 ;
b00000000000000000000000000111100 <
b00000000000000000000000000111100 T
b00000000000000000000000000111100 U
0^
b00000000000000000000000000111100 _
b00000000000000000000000000111000 a
b00000000000000000000000000111000 b
b00000000000000000000000000111100 d
b00000000000000000000000000111100 e
b0001110 g
0l
0t
01"
b00000000000000000000000000111100 <"
b00000000000000000000000000111100 ="
b00000000000000000000000000111100 ?"
b00000000000000000000000000111100 C"
b00000000000000000000000000111100 H"
b00000000000000000000000000111100 I"
b00000000000000000000000000111100 K"
b00000000000000000000000000111100 L"
#283000000
1!
1,
1.
1^
1l
1t
11"
#293000000
0!
0,
0.
b00000000000000000000000001000000 :
b00000000000000000000000000111100 ;
b00000000000000000000000001000000 <
b00000000000000000000000001000000 T
b00000000000000000000000001000000 U
0^
b00000000000000000000000001000000 _
b00000000000000000000000000111100 a
b00000000000000000000000000111100 b
b00000000000000000000000001000000 d
b00000000000000000000000001000000 e
b0001111 g
0l
0t
01"
b00000000000000000000000001000000 <"
b00000000000000000000000001000000 ="
b00000000000000000000000001000000 ?"
b00000000000000000000000001000000 C"
b00000000000000000000000001000000 H"
b00000000000000000000000001000000 I"
b00000000000000000000000001000000 K"
b00000000000000000000000001000000 L"
#303000000
1!
1,
1.
1^
1l
1t
11"
#313000000
0!
0,
0.
b00000000000000000000000001000100 :
b00000000000000000000000001000000 ;
b00000000000000000000000001000100 <
b00000000000000000000000001000100 T
b00000000000000000000000001000100 U
0^
b00000000000000000000000001000100 _
b00000000000000000000000001000000 a
b00000000000000000000000001000000 b
b00000000000000000000000001000100 d
b00000000000000000000000001000100 e
b0010000 g
0l
0t
01"
b00000000000000000000000001000100 <"
b00000000000000000000000001000100 ="
b00000000000000000000000001000100 ?"
b00000000000000000000000001000100 C"
b00000000000000000000000001000100 H"
b00000000000000000000000001000100 I"
b00000000000000000000000001000100 K"
b00000000000000000000000001000100 L"
#323000000
1!
1,
1.
1^
1l
1t
11"
#333000000
0!
0,
0.
b00000000000000000000000001001000 :
b00000000000000000000000001000100 ;
b00000000000000000000000001001000 <
b00000000000000000000000001001000 T
b00000000000000000000000001001000 U
0^
b00000000000000000000000001001000 _
b00000000000000000000000001000100 a
b00000000000000000000000001000100 b
b00000000000000000000000001001000 d
b00000000000000000000000001001000 e
b0010001 g
0l
0t
01"
b00000000000000000000000001001000 <"
b00000000000000000000000001001000 ="
b00000000000000000000000001001000 ?"
b00000000000000000000000001001000 C"
b00000000000000000000000001001000 H"
b00000000000000000000000001001000 I"
b00000000000000000000000001001000 K"
b00000000000000000000000001001000 L"
#343000000
1!
1,
1.
1^
1l
1t
11"
#353000000
0!
0,
0.
b00000000000000000000000001001100 :
b00000000000000000000000001001000 ;
b00000000000000000000000001001100 <
b00000000000000000000000001001100 T
b00000000000000000000000001001100 U
0^
b00000000000000000000000001001100 _
b00000000000000000000000001001000 a
b00000000000000000000000001001000 b
b00000000000000000000000001001100 d
b00000000000000000000000001001100 e
b0010010 g
0l
0t
01"
b00000000000000000000000001001100 <"
b00000000000000000000000001001100 ="
b00000000000000000000000001001100 ?"
b00000000000000000000000001001100 C"
b00000000000000000000000001001100 H"
b00000000000000000000000001001100 I"
b00000000000000000000000001001100 K"
b00000000000000000000000001001100 L"
#363000000
1!
1,
1.
1^
1l
1t
11"
#373000000
0!
0,
0.
b00000000000000000000000001010000 :
b00000000000000000000000001001100 ;
b00000000000000000000000001010000 <
b00000000000000000000000001010000 T
b00000000000000000000000001010000 U
0^
b00000000000000000000000001010000 _
b00000000000000000000000001001100 a
b00000000000000000000000001001100 b
b00000000000000000000000001010000 d
b00000000000000000000000001010000 e
b0010011 g
0l
0t
01"
b00000000000000000000000001010000 <"
b00000000000000000000000001010000 ="
b00000000000000000000000001010000 ?"
b00000000000000000000000001010000 C"
b00000000000000000000000001010000 H"
b00000000000000000000000001010000 I"
b00000000000000000000000001010000 K"
b00000000000000000000000001010000 L"
#383000000
1!
1,
1.
1^
1l
1t
11"
#393000000
0!
0,
0.
b00000000000000000000000001010100 :
b00000000000000000000000001010000 ;
b00000000000000000000000001010100 <
b00000000000000000000000001010100 T
b00000000000000000000000001010100 U
0^
b00000000000000000000000001010100 _
b00000000000000000000000001010000 a
b00000000000000000000000001010000 b
b00000000000000000000000001010100 d
b00000000000000000000000001010100 e
b0010100 g
0l
0t
01"
b00000000000000000000000001010100 <"
b00000000000000000000000001010100 ="
b00000000000000000000000001010100 ?"
b00000000000000000000000001010100 C"
b00000000000000000000000001010100 H"
b00000000000000000000000001010100 I"
b00000000000000000000000001010100 K"
b00000000000000000000000001010100 L"
#403000000
1!
1,
1.
1^
1l
1t
11"
#413000000
0!
0,
0.
b00000000000000000000000001011000 :
b00000000000000000000000001010100 ;
b00000000000000000000000001011000 <
b00000000000000000000000001011000 T
b00000000000000000000000001011000 U
0^
b00000000000000000000000001011000 _
b00000000000000000000000001010100 a
b00000000000000000000000001010100 b
b00000000000000000000000001011000 d
b00000000000000000000000001011000 e
b0010101 g
0l
0t
01"
b00000000000000000000000001011000 <"
b00000000000000000000000001011000 ="
b00000000000000000000000001011000 ?"
b00000000000000000000000001011000 C"
b00000000000000000000000001011000 H"
b00000000000000000000000001011000 I"
b00000000000000000000000001011000 K"
b00000000000000000000000001011000 L"
#423000000
1!
b001101 "
1,
1-
1.
b001101 /
19
b00000000000000000000000000000100 :
b00000000000000000000000000000000 ;
b00000000000000000000000000000100 <
b00110110000100000000000000001010 =
b00000000000000000000000000001010 C
b00000000000000000000000000000100 T
b00000000000000000000000000101100 U
b00001000010000000000000000101000 V
b00001000010000000000000000101000 W
b00000000000000000000000000101000 Y
b00001000000000000000010100000000 Z
1^
b00000000000000000000000000000100 _
1`
b00000000000000000000000000000000 a
b00000000000000000000000000000000 b
b00000000000000000000000000000100 d
b00000000000000000000000000000100 e
b00110110000100000000000000001010 f
b0000000 g
b10000 h
1l
b10000 m
b10000 n
1t
b00000000000000000000000000001010 y
b001010 %"
11"
b001101 2"
b00000000000000000000000000000100 <"
b00000000000000000000000000101100 ="
b00000000000000000000000000000100 ?"
b00000000000000000000000000000100 C"
b00001000010000000000000000101000 D"
b00001000000000000000010100000000 F"
b00000000000000000000000000000100 H"
b00000000000000000000000000000100 I"
b00000000000000000000000000101000 J"
b00000000000000000000000000101100 K"
b00000000000000000000000000101100 L"
b00001000010000000000000000101000 M"
b00001000010000000000000000101000 O"
b00001000010000000000000000101000 P"
#424000000
0!
0,
0.
b00000000000000000000000000001010 ?
b00000000000000000000000000001010 @
b00000000000000000000000000001010 A
b00000000000000000010100000000000 B
0F
b00000000000000000010100000000000 H
b00000000000000000000000000001010 [
0^
0l
b00000000000000000000000000001010 p
b00000000000000000000000000001010 q
b00000000000000000010100000000000 r
0t
0v
b00000000000000000000000000001010 x
b00000000000000000000000000001010 {
b00000000000000000000000000001010 |
b00000000000000000000000000001010 }
0""
b00000000000000000010100000000000 $"
b00000000000000000000000000001010 +"
b00000000000000000010100000000000 -"
b00000000000000000010100000000000 0"
01"
b00000000000000000000000000001010 E"
#425000000
1!
0#
b001 (
1*
1,
1.
00
b001 5
17
b10000 >
b00000000000000000000000000001010 B
b0001 E
b00000000000000000000000000001010 H
0M
b001 O
1Q
1^
0j
b10000 k
1l
b10000 o
b00000000000000000000000000001010 r
1t
1z
b0001 !"
b00000000000000000000000000001010 $"
b001 &"
b0001 '"
b0000010 ,"
b00000000000000000000000000001010 -"
b00000000000000000000000000001010 0"
11"
03"
b001 8"
1:"
#426000000
0-
09
0`
