test.vcd
$date
  Tue Apr 13 12:40:07 2021
$end
$version
  GHDL v0
$end
$timescale
  1 fs
$end
$scope module standard $end
$upscope $end
$scope module std_logic_1164 $end
$upscope $end
$scope module numeric_std $end
$upscope $end
$scope module test_bench $end
$var reg 1 ! clock $end
$var reg 6 " instruction[5:0] $end
$var reg 1 # regdst $end
$var reg 2 $ jump[1:0] $end
$var reg 2 % branch[1:0] $end
$var reg 1 & memread $end
$var reg 1 ' memtoreg $end
$var reg 3 ( aluop[2:0] $end
$var reg 1 ) memwrite $end
$var reg 1 * alusrc $end
$var reg 1 + regwrite $end
$var reg 1 , clock_real $end
$var reg 1 - resetador_de_pc $end
$scope module mip0 $end
$var reg 1 . clk $end
$var reg 6 / instruction[5:0] $end
$var reg 1 0 regdst $end
$var reg 2 1 jump[1:0] $end
$var reg 2 2 branch[1:0] $end
$var reg 1 3 memread $end
$var reg 1 4 memtoreg $end
$var reg 3 5 aluop[2:0] $end
$var reg 1 6 memwrite $end
$var reg 1 7 alusrc $end
$var reg 1 8 regwrite $end
$var reg 1 9 reset_pc $end
$var reg 32 : mux3_to_pc[31:0] $end
$var reg 32 ; pc_to_instruction_adder[31:0] $end
$var reg 32 < somador_out[31:0] $end
$var reg 32 = instruction_memory_out[31:0] $end
$var reg 5 > mux0_5_out[4:0] $end
$var reg 32 ? mux0_32_out[31:0] $end
$var reg 32 @ banco_reg_output1_out[31:0] $end
$var reg 32 A banco_reg_output2_out[31:0] $end
$var reg 32 B data_out_reg[31:0] $end
$var reg 32 C extented_instruction[31:0] $end
$var reg 1 D branch_and_zero $end
$var reg 4 E alu_op_out[3:0] $end
$var reg 1 F alu_zero_out $end
$var reg 1 G alu_negative_out $end
$var reg 32 H alu_result_out[31:0] $end
$var reg 32 I data_memory_out[31:0] $end
$var reg 1 J control_mem_to_reg $end
$var reg 2 K control_jmp[1:0] $end
$var reg 2 L control_branch[1:0] $end
$var reg 1 M control_regdest $end
$var reg 1 N control_memread $end
$var reg 3 O control_alu_op[2:0] $end
$var reg 1 P control_memwrite $end
$var reg 1 Q control_alusrc $end
$var reg 1 R control_reg_write $end
$var reg 1 S branch_mux $end
$var reg 32 T saida_mux2[31:0] $end
$var reg 32 U somador2_out[31:0] $end
$var reg 32 V jump_adress_before_add[31:0] $end
$var reg 32 W jump_adress_after_add[31:0] $end
$var reg 32 X valor4[31:0] $end
$var reg 32 Y shift_left0[31:0] $end
$var reg 32 Z jal[31:0] $end
$var reg 32 [ jr[31:0] $end
$var reg 1 \ alu_jr_to_jr $end
$var reg 2 ] mux_control_to_mux[1:0] $end
$var reg 32 ^ shamt[31:0] $end
$var reg 32 _ mux_shift_to_ula[31:0] $end
$var reg 1 ` mux_b_shift_control $end
$scope module pc0 $end
$var reg 1 a clk $end
$var reg 32 b entrada[31:0] $end
$var reg 1 c reset $end
$var reg 32 d saida[31:0] $end
$upscope $end
$scope module somador4 $end
$var reg 32 e number1[31:0] $end
$var reg 32 f number2[31:0] $end
$var reg 32 g saida[31:0] $end
$var reg 32 h temp[31:0] $end
$upscope $end
$scope module instructions $end
$var reg 32 i data_out[31:0] $end
$var reg 7 j address[6:0] $end
$comment data_mem is not handled $end
$upscope $end
$scope module mux_shift_a $end
$var reg 32 k entrada0[31:0] $end
$var reg 32 l entrada1[31:0] $end
$var reg 1 m seletor $end
$var reg 32 n saida[31:0] $end
$upscope $end
$scope module mux_banco_registradores $end
$var reg 5 o entrada0[4:0] $end
$var reg 5 p entrada1[4:0] $end
$var reg 1 q seletor $end
$var reg 5 r saida[4:0] $end
$upscope $end
$scope module bank $end
$var reg 1 s clock $end
$var reg 5 t address1[4:0] $end
$var reg 5 u address2[4:0] $end
$var reg 5 v write_address[4:0] $end
$var reg 32 w output1[31:0] $end
$var reg 32 x output2[31:0] $end
$var reg 32 y write_data[31:0] $end
$var reg 1 z write_enable $end
$comment data_mem is not handled $end
$upscope $end
$scope module branch_control0 $end
$var reg 1 { clock $end
$var reg 2 | branch[1:0] $end
$var reg 1 } zero $end
$var reg 1 !" mux_in $end
$upscope $end
$scope module mux_saida_banco_registradores $end
$var reg 32 "" entrada0[31:0] $end
$var reg 32 #" entrada1[31:0] $end
$var reg 1 $" seletor $end
$var reg 32 %" saida[31:0] $end
$upscope $end
$scope module alu0 $end
$var reg 32 &" a[31:0] $end
$var reg 32 '" b[31:0] $end
$var reg 4 (" op[3:0] $end
$var reg 1 )" zero $end
$var reg 1 *" negative $end
$var reg 32 +" result[31:0] $end
$upscope $end
$scope module alu_control $end
$var reg 6 ," instruction_in[5:0] $end
$var reg 3 -" alu_op[2:0] $end
$var reg 4 ." alu_op_out[3:0] $end
$var reg 1 /" shift_control $end
$var reg 1 0" jr $end
$upscope $end
$scope module memoria_de_dados $end
$var reg 1 1" write_enable $end
$var reg 32 2" data_out[31:0] $end
$var reg 32 3" data_in[31:0] $end
$var reg 7 4" address[6:0] $end
$comment data_mem is not handled $end
$upscope $end
$scope module mux_saida_memoria_de_dados $end
$var reg 32 5" entrada0[31:0] $end
$var reg 32 6" entrada1[31:0] $end
$var reg 1 7" seletor $end
$var reg 32 8" saida[31:0] $end
$upscope $end
$scope module controle0 $end
$var reg 1 9" clk $end
$var reg 6 :" instruction[5:0] $end
$var reg 1 ;" regdst $end
$var reg 2 <" jump[1:0] $end
$var reg 2 =" branch[1:0] $end
$var reg 1 >" memread $end
$var reg 1 ?" memtoreg $end
$var reg 3 @" aluop[2:0] $end
$var reg 1 A" memwrite $end
$var reg 1 B" alusrc $end
$var reg 1 C" regwrite $end
$upscope $end
$scope module mux_seleciona_pc $end
$var reg 32 D" entrada0[31:0] $end
$var reg 32 E" entrada1[31:0] $end
$var reg 1 F" seletor $end
$var reg 32 G" saida[31:0] $end
$upscope $end
$scope module jump_control0 $end
$var reg 1 H" jr $end
$var reg 2 I" jump_control[1:0] $end
$var reg 2 J" mux_control[1:0] $end
$upscope $end
$scope module mux3_32_2bits $end
$var reg 32 K" entrada0[31:0] $end
$var reg 32 L" entrada1[31:0] $end
$var reg 32 M" entrada2[31:0] $end
$var reg 32 N" entrada3[31:0] $end
$var reg 2 O" seletor[1:0] $end
$var reg 32 P" saida[31:0] $end
$upscope $end
$scope module somador4_2 $end
$var reg 32 Q" number1[31:0] $end
$var reg 32 R" number2[31:0] $end
$var reg 32 S" saida[31:0] $end
$var reg 32 T" temp[31:0] $end
$upscope $end
$scope module somador4_3 $end
$var reg 32 U" number1[31:0] $end
$var reg 32 V" number2[31:0] $end
$var reg 32 W" saida[31:0] $end
$var reg 32 X" temp[31:0] $end
$upscope $end
$upscope $end
$upscope $end
$enddefinitions $end
#0
U!
b001000 "
U#
bUU $
bUU %
U&
U'
bUUU (
U)
U*
U+
U,
1-
U.
b001000 /
U0
bUU 1
bUU 2
U3
U4
bUUU 5
U6
U7
U8
19
bUUUUUUUUUUUUUUUUUUUUUUUUUUUUUUUU :
bUUUUUUUUUUUUUUUUUUUUUUUUUUUUUUUU ;
bXXXXXXXXXXXXXXXXXXXXXXXXXXXXXXXX <
b00100010000100000000000000000001 =
bUUUUU >
bUUUUUUUUUUUUUUUUUUUUUUUUUUUUUUUU ?
b00000000000000000000000000000000 @
b00000000000000000000000000000000 A
bUUUUUUUUUUUUUUUUUUUUUUUUUUUUUUUU B
b00000000000000000000000000000001 C
0D
bUUUU E
1F
1G
b00000000000000000000000000000000 H
b00000000000000000000000000000000 I
UJ
bUU K
bUU L
UM
UN
bUUU O
UP
UQ
UR
US
bXXXXXXXXXXXXXXXXXXXXXXXXXXXXXXXX T
bXXXXXXXXXXXXXXXXXXXXXXXXXXXXXXXX U
bUUUU1000010000000000000000000100 V
bXXXXXXXXXXXXXXXXXXXXXXXXXXXXXXXX W
b00000000000000000000000000000100 X
b00000000000000000000000000000100 Y
b00001000000000000000000010000000 Z
b00000000000000000000000000000000 [
0\
bUU ]
b00000000000000000000000000000000 ^
b00000000000000000000000000000000 _
0`
Ua
bUUUUUUUUUUUUUUUUUUUUUUUUUUUUUUUU b
1c
bUUUUUUUUUUUUUUUUUUUUUUUUUUUUUUUU d
bUUUUUUUUUUUUUUUUUUUUUUUUUUUUUUUU e
b00000000000000000000000000000100 f
bXXXXXXXXXXXXXXXXXXXXXXXXXXXXXXXX g
bXXXXXXXXXXXXXXXXXXXXXXXXXXXXXXXX h
b00100010000100000000000000000001 i
bUUUUUUU j
b00000000000000000000000000000000 k
b00000000000000000000000000000000 l
0m
b00000000000000000000000000000000 n
b10000 o
b00000 p
Uq
bUUUUU r
Us
b10000 t
b10000 u
bUUUUU v
b00000000000000000000000000000000 w
b00000000000000000000000000000000 x
bUUUUUUUUUUUUUUUUUUUUUUUUUUUUUUUU y
Uz
U{
bUU |
1}
0!"
b00000000000000000000000000000000 ""
b00000000000000000000000000000001 #"
U$"
bUUUUUUUUUUUUUUUUUUUUUUUUUUUUUUUU %"
b00000000000000000000000000000000 &"
bUUUUUUUUUUUUUUUUUUUUUUUUUUUUUUUU '"
bUUUU ("
1)"
1*"
b00000000000000000000000000000000 +"
b000001 ,"
bUUU -"
bUUUU ."
0/"
00"
U1"
b00000000000000000000000000000000 2"
b00000000000000000000000000000000 3"
b0000000 4"
b00000000000000000000000000000000 5"
b00000000000000000000000000000000 6"
U7"
bUUUUUUUUUUUUUUUUUUUUUUUUUUUUUUUU 8"
U9"
b001000 :"
U;"
bUU <"
bUU ="
U>"
U?"
bUUU @"
UA"
UB"
UC"
bXXXXXXXXXXXXXXXXXXXXXXXXXXXXXXXX D"
bXXXXXXXXXXXXXXXXXXXXXXXXXXXXXXXX E"
0F"
bXXXXXXXXXXXXXXXXXXXXXXXXXXXXXXXX G"
0H"
bUU I"
bUU J"
bXXXXXXXXXXXXXXXXXXXXXXXXXXXXXXXX K"
bXXXXXXXXXXXXXXXXXXXXXXXXXXXXXXXX L"
b00000000000000000000000000000000 M"
b00001000000000000000000010000000 N"
bUU O"
bUUUUUUUUUUUUUUUUUUUUUUUUUUUUUUUU P"
bXXXXXXXXXXXXXXXXXXXXXXXXXXXXXXXX Q"
b00000000000000000000000000000100 R"
bXXXXXXXXXXXXXXXXXXXXXXXXXXXXXXXX S"
bXXXXXXXXXXXXXXXXXXXXXXXXXXXXXXXX T"
bUUUU1000010000000000000000000100 U"
b00000000000000000000000000000000 V"
bXXXXXXXXXXXXXXXXXXXXXXXXXXXXXXXX W"
bXXXXXXXXXXXXXXXXXXXXXXXXXXXXXXXX X"
#1000000
0!
0,
0.
b00000000000000000000000000000000 ;
b00000000000000000000000000000100 <
b00000000000000000000000000000100 T
b00000000000000000000000000001000 U
b00001000010000000000000000000100 V
b00001000010000000000000000000100 W
0a
b00000000000000000000000000000000 d
b00000000000000000000000000000000 e
b00000000000000000000000000000100 g
b00000000000000000000000000000100 h
b0000000 j
0s
0{
09"
b00000000000000000000000000000100 D"
b00000000000000000000000000001000 E"
b00000000000000000000000000000100 G"
b00000000000000000000000000000100 K"
b00001000010000000000000000000100 L"
b00000000000000000000000000000100 Q"
b00000000000000000000000000001000 S"
b00000000000000000000000000001000 T"
b00001000010000000000000000000100 U"
b00001000010000000000000000000100 W"
b00001000010000000000000000000100 X"
#2000000
1!
0#
b00 $
b00 %
0&
0'
b110 (
0)
1*
1+
1,
1.
00
b00 1
b00 2
03
04
b110 5
06
17
18
b00000000000000000000000000000100 :
b10000 >
b00000000000000000000000000000001 ?
b00000000000000000000000000000001 B
b0010 E
0F
b00000000000000000000000000000001 H
0J
b00 K
b00 L
0M
0N
b110 O
0P
1Q
1R
b00 ]
1a
b00000000000000000000000000000100 b
0q
b10000 r
1s
b10000 v
b00000000000000000000000000000001 y
1z
1{
b00 |
0}
1$"
b00000000000000000000000000000001 %"
b00000000000000000000000000000001 '"
b0010 ("
0)"
b00000000000000000000000000000001 +"
b110 -"
b0010 ."
01"
b00000000000000000000000000000001 5"
07"
b00000000000000000000000000000001 8"
19"
0;"
b00 <"
b00 ="
0>"
0?"
b110 @"
0A"
1B"
1C"
b00 I"
b00 J"
b00 O"
b00000000000000000000000000000100 P"
#3000000
0-
09
0c
#13000000
0!
b000000 "
0,
0.
b000000 /
b00000000000000000000000000001000 :
b00000000000000000000000000000100 ;
b00000000000000000000000000001000 <
b00000000000100001000000001000010 =
b00000000000000001000000001000010 ?
b00000000000000001000000001000010 B
b00000000000000001000000001000010 C
b00000000000000001000000001000010 H
b00000000000000000000000000001000 T
b00000000000000100000000100010000 U
b00000000010000100000000100001000 V
b00000000010000100000000100001000 W
b00000000000000100000000100001000 Y
b00001000010000000010000100000000 Z
b00000000000000000000000000000001 ^
0a
b00000000000000000000000000001000 b
b00000000000000000000000000000100 d
b00000000000000000000000000000100 e
b00000000000000000000000000001000 g
b00000000000000000000000000001000 h
b00000000000100001000000001000010 i
b0000001 j
b00000000000000000000000000000001 l
b10000 p
0s
b00000 t
b00000000000000001000000001000010 y
0{
b00000000000000001000000001000010 #"
b00000000000000001000000001000010 %"
b00000000000000001000000001000010 '"
b00000000000000001000000001000010 +"
b000010 ,"
b0010000 4"
b00000000000000001000000001000010 5"
b00000000000000001000000001000010 8"
09"
b000000 :"
b00000000000000000000000000001000 D"
b00000000000000100000000100010000 E"
b00000000000000000000000000001000 G"
b00000000000000000000000000001000 K"
b00000000010000100000000100001000 L"
b00001000010000000010000100000000 N"
b00000000000000000000000000001000 P"
b00000000000000000000000000001000 Q"
b00000000000000100000000100001000 R"
b00000000000000100000000100010000 S"
b00000000000000100000000100010000 T"
b00000000010000100000000100001000 U"
b00000000010000100000000100001000 W"
b00000000010000100000000100001000 X"
#23000000
1!
1#
b000 (
0*
1,
1.
10
b000 5
07
b00000000000000000000000000000001 ?
b00000000000000000000000000000001 A
b00000000000000000000000000000000 B
b1000 E
1F
b00000000000000000000000000000000 H
1M
b000 O
0Q
b00000000000000000000000000000001 _
1`
1a
1m
b00000000000000000000000000000001 n
1q
1s
b00000000000000000000000000000001 x
b00000000000000000000000000000000 y
1{
1}
b00000000000000000000000000000001 ""
0$"
b00000000000000000000000000000001 %"
b00000000000000000000000000000001 &"
b00000000000000000000000000000001 '"
b1000 ("
1)"
b00000000000000000000000000000000 +"
b000 -"
b1000 ."
1/"
b00000000000000000000000000000001 3"
b0000000 4"
b00000000000000000000000000000000 5"
b00000000000000000000000000000000 8"
19"
1;"
b000 @"
0B"
#33000000
0!
0,
0.
b00000000000000000000000000001100 :
b00000000000000000000000000001000 ;
b00000000000000000000000000001100 <
b00000000000000000000000000000000 =
b00000 >
b00000000000000000000000000000000 B
b00000000000000000000000000000000 C
b0111 E
1F
b00000000000000000000000000000000 H
b00000000000000000000000000001100 T
b00000000000000000000000000001100 U
b00000000000000000000000000000000 V
b00000000000000000000000000000000 W
b00000000000000000000000000000000 Y
b00000000000000000000000000000000 Z
b00000000000000000000000000000000 ^
b00000000000000000000000000000000 _
0a
b00000000000000000000000000001100 b
b00000000000000000000000000001000 d
b00000000000000000000000000001000 e
b00000000000000000000000000001100 g
b00000000000000000000000000001100 h
b00000000000000000000000000000000 i
b0000010 j
b00000000000000000000000000000000 l
b00000000000000000000000000000000 n
b00000 o
b00000 p
b00000 r
0s
b00000 u
b00000 v
b00000000000000000000000000000000 y
0{
1}
b00000000000000000000000000000000 #"
b00000000000000000000000000000000 &"
b0111 ("
1)"
b00000000000000000000000000000000 +"
b000000 ,"
b0111 ."
1/"
b00000000000000000000000000000000 5"
b00000000000000000000000000000000 8"
09"
b00000000000000000000000000001100 D"
b00000000000000000000000000001100 E"
b00000000000000000000000000001100 G"
b00000000000000000000000000001100 K"
b00000000000000000000000000000000 L"
b00000000000000000000000000000000 N"
b00000000000000000000000000001100 P"
b00000000000000000000000000001100 Q"
b00000000000000000000000000000000 R"
b00000000000000000000000000001100 S"
b00000000000000000000000000001100 T"
b00000000000000000000000000000000 U"
b00000000000000000000000000000000 W"
b00000000000000000000000000000000 X"
#43000000
1!
1,
1.
b00000000000000000000000000000000 ?
b00000000000000000000000000000000 A
1a
1s
b00000000000000000000000000000000 x
1{
b00000000000000000000000000000000 ""
b00000000000000000000000000000000 %"
b00000000000000000000000000000000 '"
b00000000000000000000000000000000 3"
19"
#53000000
0!
0,
0.
b00000000000000000000000000010000 :
b00000000000000000000000000001100 ;
b00000000000000000000000000010000 <
b00000000000000000000000000010000 T
b00000000000000000000000000010000 U
0a
b00000000000000000000000000010000 b
b00000000000000000000000000001100 d
b00000000000000000000000000001100 e
b00000000000000000000000000010000 g
b00000000000000000000000000010000 h
b0000011 j
0s
0{
09"
b00000000000000000000000000010000 D"
b00000000000000000000000000010000 E"
b00000000000000000000000000010000 G"
b00000000000000000000000000010000 K"
b00000000000000000000000000010000 P"
b00000000000000000000000000010000 Q"
b00000000000000000000000000010000 S"
b00000000000000000000000000010000 T"
#63000000
1!
1,
1.
1a
1s
1{
19"
#73000000
0!
0,
0.
b00000000000000000000000000010100 :
b00000000000000000000000000010000 ;
b00000000000000000000000000010100 <
b00000000000000000000000000010100 T
b00000000000000000000000000010100 U
0a
b00000000000000000000000000010100 b
b00000000000000000000000000010000 d
b00000000000000000000000000010000 e
b00000000000000000000000000010100 g
b00000000000000000000000000010100 h
b0000100 j
0s
0{
09"
b00000000000000000000000000010100 D"
b00000000000000000000000000010100 E"
b00000000000000000000000000010100 G"
b00000000000000000000000000010100 K"
b00000000000000000000000000010100 P"
b00000000000000000000000000010100 Q"
b00000000000000000000000000010100 S"
b00000000000000000000000000010100 T"
#83000000
1!
1,
1.
1a
1s
1{
19"
#93000000
0!
0,
0.
b00000000000000000000000000011000 :
b00000000000000000000000000010100 ;
b00000000000000000000000000011000 <
b00000000000000000000000000011000 T
b00000000000000000000000000011000 U
0a
b00000000000000000000000000011000 b
b00000000000000000000000000010100 d
b00000000000000000000000000010100 e
b00000000000000000000000000011000 g
b00000000000000000000000000011000 h
b0000101 j
0s
0{
09"
b00000000000000000000000000011000 D"
b00000000000000000000000000011000 E"
b00000000000000000000000000011000 G"
b00000000000000000000000000011000 K"
b00000000000000000000000000011000 P"
b00000000000000000000000000011000 Q"
b00000000000000000000000000011000 S"
b00000000000000000000000000011000 T"
#103000000
1!
1,
1.
1a
1s
1{
19"
#113000000
0!
0,
0.
b00000000000000000000000000011100 :
b00000000000000000000000000011000 ;
b00000000000000000000000000011100 <
b00000000000000000000000000011100 T
b00000000000000000000000000011100 U
0a
b00000000000000000000000000011100 b
b00000000000000000000000000011000 d
b00000000000000000000000000011000 e
b00000000000000000000000000011100 g
b00000000000000000000000000011100 h
b0000110 j
0s
0{
09"
b00000000000000000000000000011100 D"
b00000000000000000000000000011100 E"
b00000000000000000000000000011100 G"
b00000000000000000000000000011100 K"
b00000000000000000000000000011100 P"
b00000000000000000000000000011100 Q"
b00000000000000000000000000011100 S"
b00000000000000000000000000011100 T"
#123000000
1!
1,
1.
1a
1s
1{
19"
#133000000
0!
0,
0.
b00000000000000000000000000100000 :
b00000000000000000000000000011100 ;
b00000000000000000000000000100000 <
b00000000000000000000000000100000 T
b00000000000000000000000000100000 U
0a
b00000000000000000000000000100000 b
b00000000000000000000000000011100 d
b00000000000000000000000000011100 e
b00000000000000000000000000100000 g
b00000000000000000000000000100000 h
b0000111 j
0s
0{
09"
b00000000000000000000000000100000 D"
b00000000000000000000000000100000 E"
b00000000000000000000000000100000 G"
b00000000000000000000000000100000 K"
b00000000000000000000000000100000 P"
b00000000000000000000000000100000 Q"
b00000000000000000000000000100000 S"
b00000000000000000000000000100000 T"
#143000000
1!
1,
1.
1a
1s
1{
19"
#153000000
0!
0,
0.
b00000000000000000000000000100100 :
b00000000000000000000000000100000 ;
b00000000000000000000000000100100 <
b00000000000000000000000000100100 T
b00000000000000000000000000100100 U
0a
b00000000000000000000000000100100 b
b00000000000000000000000000100000 d
b00000000000000000000000000100000 e
b00000000000000000000000000100100 g
b00000000000000000000000000100100 h
b0001000 j
0s
0{
09"
b00000000000000000000000000100100 D"
b00000000000000000000000000100100 E"
b00000000000000000000000000100100 G"
b00000000000000000000000000100100 K"
b00000000000000000000000000100100 P"
b00000000000000000000000000100100 Q"
b00000000000000000000000000100100 S"
b00000000000000000000000000100100 T"
#163000000
1!
1,
1.
1a
1s
1{
19"
#173000000
0!
0,
0.
b00000000000000000000000000101000 :
b00000000000000000000000000100100 ;
b00000000000000000000000000101000 <
b00000000000000000000000000101000 T
b00000000000000000000000000101000 U
0a
b00000000000000000000000000101000 b
b00000000000000000000000000100100 d
b00000000000000000000000000100100 e
b00000000000000000000000000101000 g
b00000000000000000000000000101000 h
b0001001 j
0s
0{
09"
b00000000000000000000000000101000 D"
b00000000000000000000000000101000 E"
b00000000000000000000000000101000 G"
b00000000000000000000000000101000 K"
b00000000000000000000000000101000 P"
b00000000000000000000000000101000 Q"
b00000000000000000000000000101000 S"
b00000000000000000000000000101000 T"
#183000000
1!
1,
1.
1a
1s
1{
19"
#193000000
0!
0,
0.
b00000000000000000000000000101100 :
b00000000000000000000000000101000 ;
b00000000000000000000000000101100 <
b00000000000000000000000000101100 T
b00000000000000000000000000101100 U
0a
b00000000000000000000000000101100 b
b00000000000000000000000000101000 d
b00000000000000000000000000101000 e
b00000000000000000000000000101100 g
b00000000000000000000000000101100 h
b0001010 j
0s
0{
09"
b00000000000000000000000000101100 D"
b00000000000000000000000000101100 E"
b00000000000000000000000000101100 G"
b00000000000000000000000000101100 K"
b00000000000000000000000000101100 P"
b00000000000000000000000000101100 Q"
b00000000000000000000000000101100 S"
b00000000000000000000000000101100 T"
#203000000
1!
1,
1.
1a
1s
1{
19"
#213000000
0!
0,
0.
b00000000000000000000000000110000 :
b00000000000000000000000000101100 ;
b00000000000000000000000000110000 <
b00000000000000000000000000110000 T
b00000000000000000000000000110000 U
0a
b00000000000000000000000000110000 b
b00000000000000000000000000101100 d
b00000000000000000000000000101100 e
b00000000000000000000000000110000 g
b00000000000000000000000000110000 h
b0001011 j
0s
0{
09"
b00000000000000000000000000110000 D"
b00000000000000000000000000110000 E"
b00000000000000000000000000110000 G"
b00000000000000000000000000110000 K"
b00000000000000000000000000110000 P"
b00000000000000000000000000110000 Q"
b00000000000000000000000000110000 S"
b00000000000000000000000000110000 T"
#223000000
1!
1,
1.
1a
1s
1{
19"
#233000000
0!
0,
0.
b00000000000000000000000000110100 :
b00000000000000000000000000110000 ;
b00000000000000000000000000110100 <
b00000000000000000000000000110100 T
b00000000000000000000000000110100 U
0a
b00000000000000000000000000110100 b
b00000000000000000000000000110000 d
b00000000000000000000000000110000 e
b00000000000000000000000000110100 g
b00000000000000000000000000110100 h
b0001100 j
0s
0{
09"
b00000000000000000000000000110100 D"
b00000000000000000000000000110100 E"
b00000000000000000000000000110100 G"
b00000000000000000000000000110100 K"
b00000000000000000000000000110100 P"
b00000000000000000000000000110100 Q"
b00000000000000000000000000110100 S"
b00000000000000000000000000110100 T"
#243000000
1!
1,
1.
1a
1s
1{
19"
#253000000
0!
0,
0.
b00000000000000000000000000111000 :
b00000000000000000000000000110100 ;
b00000000000000000000000000111000 <
b00000000000000000000000000111000 T
b00000000000000000000000000111000 U
0a
b00000000000000000000000000111000 b
b00000000000000000000000000110100 d
b00000000000000000000000000110100 e
b00000000000000000000000000111000 g
b00000000000000000000000000111000 h
b0001101 j
0s
0{
09"
b00000000000000000000000000111000 D"
b00000000000000000000000000111000 E"
b00000000000000000000000000111000 G"
b00000000000000000000000000111000 K"
b00000000000000000000000000111000 P"
b00000000000000000000000000111000 Q"
b00000000000000000000000000111000 S"
b00000000000000000000000000111000 T"
#263000000
1!
1,
1.
1a
1s
1{
19"
#273000000
0!
0,
0.
b00000000000000000000000000111100 :
b00000000000000000000000000111000 ;
b00000000000000000000000000111100 <
b00000000000000000000000000111100 T
b00000000000000000000000000111100 U
0a
b00000000000000000000000000111100 b
b00000000000000000000000000111000 d
b00000000000000000000000000111000 e
b00000000000000000000000000111100 g
b00000000000000000000000000111100 h
b0001110 j
0s
0{
09"
b00000000000000000000000000111100 D"
b00000000000000000000000000111100 E"
b00000000000000000000000000111100 G"
b00000000000000000000000000111100 K"
b00000000000000000000000000111100 P"
b00000000000000000000000000111100 Q"
b00000000000000000000000000111100 S"
b00000000000000000000000000111100 T"
#283000000
1!
1,
1.
1a
1s
1{
19"
#293000000
0!
0,
0.
b00000000000000000000000001000000 :
b00000000000000000000000000111100 ;
b00000000000000000000000001000000 <
b00000000000000000000000001000000 T
b00000000000000000000000001000000 U
0a
b00000000000000000000000001000000 b
b00000000000000000000000000111100 d
b00000000000000000000000000111100 e
b00000000000000000000000001000000 g
b00000000000000000000000001000000 h
b0001111 j
0s
0{
09"
b00000000000000000000000001000000 D"
b00000000000000000000000001000000 E"
b00000000000000000000000001000000 G"
b00000000000000000000000001000000 K"
b00000000000000000000000001000000 P"
b00000000000000000000000001000000 Q"
b00000000000000000000000001000000 S"
b00000000000000000000000001000000 T"
#303000000
1!
1,
1.
1a
1s
1{
19"
#313000000
0!
0,
0.
b00000000000000000000000001000100 :
b00000000000000000000000001000000 ;
b00000000000000000000000001000100 <
b00000000000000000000000001000100 T
b00000000000000000000000001000100 U
0a
b00000000000000000000000001000100 b
b00000000000000000000000001000000 d
b00000000000000000000000001000000 e
b00000000000000000000000001000100 g
b00000000000000000000000001000100 h
b0010000 j
0s
0{
09"
b00000000000000000000000001000100 D"
b00000000000000000000000001000100 E"
b00000000000000000000000001000100 G"
b00000000000000000000000001000100 K"
b00000000000000000000000001000100 P"
b00000000000000000000000001000100 Q"
b00000000000000000000000001000100 S"
b00000000000000000000000001000100 T"
#323000000
1!
1,
1.
1a
1s
1{
19"
#333000000
0!
0,
0.
b00000000000000000000000001001000 :
b00000000000000000000000001000100 ;
b00000000000000000000000001001000 <
b00000000000000000000000001001000 T
b00000000000000000000000001001000 U
0a
b00000000000000000000000001001000 b
b00000000000000000000000001000100 d
b00000000000000000000000001000100 e
b00000000000000000000000001001000 g
b00000000000000000000000001001000 h
b0010001 j
0s
0{
09"
b00000000000000000000000001001000 D"
b00000000000000000000000001001000 E"
b00000000000000000000000001001000 G"
b00000000000000000000000001001000 K"
b00000000000000000000000001001000 P"
b00000000000000000000000001001000 Q"
b00000000000000000000000001001000 S"
b00000000000000000000000001001000 T"
#343000000
1!
1,
1.
1a
1s
1{
19"
#353000000
0!
0,
0.
b00000000000000000000000001001100 :
b00000000000000000000000001001000 ;
b00000000000000000000000001001100 <
b00000000000000000000000001001100 T
b00000000000000000000000001001100 U
0a
b00000000000000000000000001001100 b
b00000000000000000000000001001000 d
b00000000000000000000000001001000 e
b00000000000000000000000001001100 g
b00000000000000000000000001001100 h
b0010010 j
0s
0{
09"
b00000000000000000000000001001100 D"
b00000000000000000000000001001100 E"
b00000000000000000000000001001100 G"
b00000000000000000000000001001100 K"
b00000000000000000000000001001100 P"
b00000000000000000000000001001100 Q"
b00000000000000000000000001001100 S"
b00000000000000000000000001001100 T"
#363000000
1!
1,
1.
1a
1s
1{
19"
#373000000
0!
0,
0.
b00000000000000000000000001010000 :
b00000000000000000000000001001100 ;
b00000000000000000000000001010000 <
b00000000000000000000000001010000 T
b00000000000000000000000001010000 U
0a
b00000000000000000000000001010000 b
b00000000000000000000000001001100 d
b00000000000000000000000001001100 e
b00000000000000000000000001010000 g
b00000000000000000000000001010000 h
b0010011 j
0s
0{
09"
b00000000000000000000000001010000 D"
b00000000000000000000000001010000 E"
b00000000000000000000000001010000 G"
b00000000000000000000000001010000 K"
b00000000000000000000000001010000 P"
b00000000000000000000000001010000 Q"
b00000000000000000000000001010000 S"
b00000000000000000000000001010000 T"
#383000000
1!
1,
1.
1a
1s
1{
19"
#393000000
0!
0,
0.
b00000000000000000000000001010100 :
b00000000000000000000000001010000 ;
b00000000000000000000000001010100 <
b00000000000000000000000001010100 T
b00000000000000000000000001010100 U
0a
b00000000000000000000000001010100 b
b00000000000000000000000001010000 d
b00000000000000000000000001010000 e
b00000000000000000000000001010100 g
b00000000000000000000000001010100 h
b0010100 j
0s
0{
09"
b00000000000000000000000001010100 D"
b00000000000000000000000001010100 E"
b00000000000000000000000001010100 G"
b00000000000000000000000001010100 K"
b00000000000000000000000001010100 P"
b00000000000000000000000001010100 Q"
b00000000000000000000000001010100 S"
b00000000000000000000000001010100 T"
#403000000
1!
1,
1.
1a
1s
1{
19"
#413000000
0!
0,
0.
b00000000000000000000000001011000 :
b00000000000000000000000001010100 ;
b00000000000000000000000001011000 <
b00000000000000000000000001011000 T
b00000000000000000000000001011000 U
0a
b00000000000000000000000001011000 b
b00000000000000000000000001010100 d
b00000000000000000000000001010100 e
b00000000000000000000000001011000 g
b00000000000000000000000001011000 h
b0010101 j
0s
0{
09"
b00000000000000000000000001011000 D"
b00000000000000000000000001011000 E"
b00000000000000000000000001011000 G"
b00000000000000000000000001011000 K"
b00000000000000000000000001011000 P"
b00000000000000000000000001011000 Q"
b00000000000000000000000001011000 S"
b00000000000000000000000001011000 T"
